(0.0, 0.0, 0.0, 1.0)
(0.006716294741447103, 0.0021185743613995906, 0.00597023288155738, 1.0)
(0.013252415285460728, 0.00428749900576095, 0.01216178886697956, 1.0)
(0.019599198317800597, 0.006513601303033923, 0.018563039127345624, 1.0)
(0.025748104430187494, 0.00880348230351031, 0.025161867171587502, 1.0)
(0.031691233349396, 0.011163502753757985, 0.031945702318386754, 1.0)
(0.03742133763493212, 0.013599769753652026, 0.03890155390603582, 1.0)
(0.04293183482770897, 0.016118124077735142, 0.04601604616361855, 1.0)
(0.04821681803535116, 0.01872412818265829, 0.053275453666033826, 1.0)
(0.05327106494298589, 0.021423054920937448, 0.06066573729471121, 1.0)
(0.05809004524160909, 0.024219876979716743, 0.06817258062534762, 1.0)
(0.06266992646934202, 0.02711925706165498, 0.07578142666363122, 1.0)
(0.06700757826411259, 0.030125538823454635, 0.08347751484971086, 1.0)
(0.0711005750294981, 0.033242738585933594, 0.09124591825211792, 1.0)
(0.07494719701864877, 0.0364745378279025, 0.09907158087195042, 1.0)
(0.07854642984436605, 0.03982427647445866, 0.10693935497838603, 1.0)
(0.08189796242653116, 0.04329494698864347, 0.11483403839700104, 1.0)
(0.08500218339116374, 0.04688918927373824, 0.12274041167293223, 1.0)
(0.08786017593842758, 0.05060928639179554, 0.13064327503162995, 1.0)
(0.09047371119989064, 0.05445716110232384, 0.13852748506080714, 1.0)
(0.0928452401082787, 0.05843437322336474, 0.14637799103819257, 1.0)
(0.0949778838058352, 0.06254211781552795, 0.15417987083084048, 1.0)
(0.09687542262020574, 0.06678122418788301, 0.16191836629303405, 1.0)
(0.09854228363950114, 0.07115215572295082, 0.16957891809124037, 1.0)
(0.09998352692085306, 0.07565501051639596, 0.17714719988612818, 1.0)
(0.10120483036935347, 0.08028952282539623, 0.18460915180334375, 1.0)
(0.1022124733267644, 0.08505506531806008, 0.19195101312654872, 1.0)
(0.10301331891178689, 0.08995065211468102, 0.19915935414815394, 1.0)
(0.10361479515598847, 0.09497494261006116, 0.20622110711523312, 1.0)
(0.104024874981701, 0.10012624606460865, 0.2131235962102581, 1.0)
(0.10425205507031031, 0.10540252695041774, 0.21985456650857077, 1.0)
(0.10430533367136455, 0.11080141103707787, 0.22640221185687606, 1.0)
(0.10419418740482515, 0.11632019220053316, 0.2327552016195138, 1.0)
(0.10392854711056776, 0.12195583993692868, 0.23890270624183174, 1.0)
(0.10351877280091128, 0.12770500756203546, 0.2448344215826347, 1.0)
(0.1029756277735051, 0.1335640410755471, 0.2505405919704192, 1.0)
(0.10231025194333628, 0.13952898866828906, 0.2560120319409181, 1.0)
(0.10153413445392945, 0.14559561084917677, 0.26124014661635997, 1.0)
(0.10065908562899659, 0.15175939116760714, 0.2662169506897997, 1.0)
(0.09969720832685408, 0.15801554750586727, 0.2709350859808844, 1.0)
(0.09866086876085636, 0.16435904391510084, 0.2753878375324802, 1.0)
(0.09756266684989742, 0.17078460296738385, 0.2795691482206972, 1.0)
(0.09641540616370546, 0.17728671859553138, 0.28347363185399654, 1.0)
(0.0952320635281978, 0.18385966939138826, 0.28709658474025446, 1.0)
(0.09402575835657287, 0.19049753233254862, 0.29043399570386697, 1.0)
(0.09280972177209738, 0.19719419690670295, 0.2934825545382206, 1.0)
(0.09159726558869188, 0.20394337960213008, 0.29623965888210324, 1.0)
(0.09040175121543563, 0.21073863873223592, 0.29870341951189405, 1.0)
(0.0892365585509959, 0.21757338956148978, 0.3008726640446374, 1.0)
(0.08811505493374118, 0.22444091969962535, 0.30274693905036704, 1.0)
(0.08705056421292393, 0.23133440473055777, 0.3043265105753017, 1.0)
(0.08605633600581403, 0.23824692404212, 0.30561236308077167, 1.0)
(0.08514551520503576, 0.24517147682244278, 0.30660619680595214, 1.0)
(0.08433111179960413, 0.25210099818859155, 0.3073104235656677, 1.0)
(0.08362597107228092, 0.2590283754129313, 0.30772816099768746, 1.0)
(0.08304274423486754, 0.26594646421261964, 0.307863225277045, 1.0)
(0.08259385956193721, 0.27284810506762325, 0.3077201223179875, 1.0)
(0.0822914940822713, 0.27972613953271874, 0.30730403748717383, 1.0)
(0.08214754588591847, 0.28657342650907236, 0.30662082385470435, 1.0)
(0.08217360710333568, 0.2933828584411944, 0.3056769890124602, 1.0)
(0.08238093761150347, 0.3001473774053336, 0.3044796804920607, 1.0)
(0.08278043952023958, 0.3068599910557119, 0.30303666981750255, 1.0)
(0.08338263249016203, 0.31351378839540034, 0.3013563352302212, 1.0)
(0.08419762993188756, 0.32010195533910435, 0.2994476431269095, 1.0)
(0.08523511613408935, 0.32661779003565533, 0.2973201282529313, 1.0)
(0.08650432436599098, 0.3330547179185978, 0.29498387269658305, 1.0)
(0.08801401599773798, 0.33940630645391495, 0.2924494837317682, 1.0)
(0.08977246067987679, 0.345666279554647, 0.28972807055886346, 1.0)
(0.09178741762088061, 0.35182853163293015, 0.2868312199956633, 1.0)
(0.09406611799930162, 0.3578871412608098, 0.2837709711722866, 1.0)
(0.09661524854470346, 0.3638363844120639, 0.28055978928581427, 1.0)
(0.09944093631903905, 0.36967074725820875, 0.27721053847219584, 1.0)
(0.10254873472759682, 0.3753849384928446, 0.27373645385460954, 1.0)
(0.10594361078604106, 0.3809739011595331, 0.27015111282899046, 1.0)
(0.10962993366743318, 0.386432823959482, 0.2664684056488389, 1.0)
(0.11361146455043755, 0.39175715201643607, 0.26270250537269685, 1.0)
(0.11789134778719829, 0.39694259707734425, 0.2588678372388254, 1.0)
(0.12247210340662779, 0.4019851471285789, 0.2549790475326246, 1.0)
(0.1273556209660727, 0.40688107540873075, 0.2510509720132212, 1.0)
(0.13254315476153455, 0.41162694880028095, 0.24709860396639094, 1.0)
(0.13803532040381689, 0.41621963558376807, 0.24313706195159093, 1.0)
(0.14383209276515602, 0.4206563125394059, 0.239181557311351, 1.0)
(0.14993280529807912, 0.424934471382481, 0.23524736151160613, 1.0)
(0.1563361507254181, 0.42905192452025087, 0.2313497733817495, 1.0)
(0.1630401830976045, 0.4330068101194783, 0.22750408632324462, 1.0)
(0.1700423212105796, 0.43679759647517286, 0.22372555555555548, 1.0)
(0.17733935337488022, 0.44042308567255956, 0.22002936546794022, 1.0)
(0.18492744352371565, 0.4438824165357551, 0.21643059714529816, 1.0)
(0.19280213864513238, 0.4471750668581099, 0.21294419613577564, 1.0)
(0.2009583775206801, 0.45030085491064903, 0.20958494052721036, 1.0)
(0.20939050075035193, 0.4532599402265316, 0.20636740939874193, 1.0)
(0.2180922620409734, 0.45605282366093597, 0.20330595171302718, 1.0)
(0.22705684073266794, 0.45868034672725755, 0.20041465571348596, 1.0)
(0.23627685553553793, 0.46114369021199075, 0.19770731888985724, 1.0)
(0.24574437944626382, 0.463444372072136, 0.1951974185740818, 1.0)
(0.25545095581196187, 0.4655842446204368, 0.19289808322713511, 1.0)
(0.26538761550634205, 0.4675654910052002, 0.1908220644759285, 1.0)
(0.2755448951809807, 0.46939062099288875, 0.18898170995777128, 1.0)
(0.2859128565523805, 0.4710624660630873, 0.18738893702815024, 1.0)
(0.29648110668342353, 0.47258417382683937, 0.18605520738573791, 1.0)
(0.30723881921584234, 0.47395920178072126, 0.18499150266658945, 1.0)
(0.31817475650845256, 0.47519131041036283, 0.18420830105743566, 1.0)
(0.32927729263408284, 0.4762845556584382, 0.1837155549758328, 1.0)
(0.34053443718644866, 0.4772432807734319, 0.18352266986268476, 1.0)
(0.35193385984661285, 0.4780721075567351, 0.1836384841303252, 1.0)
(0.36346291565717626, 0.47877592702683464, 0.18407125030693286, 1.0)
(0.37510867095095474, 0.47935988952053404, 0.18482861741555928, 1.0)
(0.3868579298796123, 0.4798293942522737, 0.18591761462348488, 1.0)
(0.39869726148654816, 0.48019007835370575, 0.18734463619497924, 1.0)
(0.4106130272672762, 0.48044780541672255, 0.1891154277778484, 1.0)
(0.42259140915958887, 0.48060865356413107, 0.19123507405138968, 1.0)
(0.4346184379049671, 0.48067890307311123, 0.19370798776056802, 1.0)
(0.4466800217219925, 0.4806650235774908, 0.19653790015837083, 1.0)
(0.4587619752319175, 0.48057366087571074, 0.19972785287539777, 1.0)
(0.47085004857608587, 0.48041162337214066, 0.2032801912328106, 1.0)
(0.48292995666454097, 0.4801858681801365, 0.2071965590118011, 1.0)
(0.49498740849493095, 0.4799034869159042, 0.21147789468974837, 1.0)
(0.5070081364807173, 0.47957169121285, 0.21612442915022925, 1.0)
(0.5189779257277026, 0.4791977979866502, 0.22113568487102592, 1.0)
(0.5308826431980371, 0.4787892144817698, 0.22651047659124834, 1.0)
(0.5427082667011206, 0.4783534231305908, 0.23224691345566498, 1.0)
(0.5544409136511972, 0.47789796625667885, 0.2383424026313099, 1.0)
(0.5660668695319436, 0.4774304306540262, 0.24479365438842796, 1.0)
(0.5775726160089698, 0.4769584320743491, 0.25159668863482476, 1.0)
(0.5889448586318913, 0.4764895996546965, 0.25874684288971805, 1.0)
(0.6001705540684912, 0.47603156031773874, 0.2662387816802485, 1.0)
(0.6112369368144521, 0.47559192317715726, 0.2740665073408962, 1.0)
(0.6221315453232313, 0.4751782639805349, 0.28222337219318755, 1.0)
(0.6328422475018423, 0.4747981096220677, 0.29070209208025455, 1.0)
(0.6433572655196068, 0.4744589227572726, 0.29949476122803864, 1.0)
(0.6536651998783573, 0.4741680865516545, 0.3085928684022194, 1.0)
(0.663755052694073, 0.4739328895950206, 0.3179873143272981, 1.0)
(0.6736162501415541, 0.47376051101279304, 0.32766843033168314, 1.0)
(0.6832386640154413, 0.47365800580526857, 0.3376259981801124, 1.0)
(0.6926126323626934, 0.47363229044531197, 0.3478492710523138, 1.0)
(0.7017289791435338, 0.47369012876444405, 0.3583269956244587, 1.0)
(0.7105790328798448, 0.47383811815670224, 0.36904743520768857, 1.0)
(0.7191546442520655, 0.47408267612900734, 0.3799983938958308, 1.0)
(0.7274482026077793, 0.474430027226069, 0.3911672416723354, 1.0)
(0.7354526513473981, 0.4748861903571046, 0.40254094042448907, 1.0)
(0.7431615021546352, 0.47545696655083425, 0.4141060708110845, 1.0)
(0.7505688480418067, 0.476147927164348, 0.42584885992795596, 1.0)
(0.7576693751824222, 0.47696440257052414, 0.4377552097141371, 1.0)
(0.7644583735059833, 0.4779114713477098, 0.44981072603984695, 1.0)
(0.7709317460324374, 0.4789939499943594, 0.4620007484160897, 1.0)
(0.7770860169262988, 0.4802163831902654, 0.4743103802643427, 1.0)
(0.7829183382530567, 0.48158303462490826, 0.48672451968362596, 1.0)
(0.788426495423136, 0.48309787841230833, 0.49922789065118384, 1.0)
(0.7936089113113556, 0.48476459111057146, 0.5118050745920791, 1.0)
(0.7984646490425262, 0.48658654436309784, 0.5244405422521965, 1.0)
(0.8029934134365606, 0.4885667981771633, 0.5371186858084777, 1.0)
(0.8071955511092054, 0.49070809485429095, 0.5498238511496727, 1.0)
(0.8110720492272496, 0.49301285358550617, 0.5625403702604811, 1.0)
(0.8146245329198283, 0.49548316572322215, 0.5752525936416857, 1.0)
(0.8178552613501849, 0.49812079074012594, 0.5879449226987427, 1.0)
(0.8207671224550108, 0.5009271528840389, 0.6006018420312872, 1.0)
(0.8233636263612124, 0.5039033385363091, 0.6132079515561488, 1.0)
(0.8256488974926798, 0.5070500942798608, 0.6257479983967315, 1.0)
(0.8276276653823276, 0.5103678256815796, 0.6382069084720281, 1.0)
(0.8293052542073496, 0.5138565967922508, 0.6505698177190583, 1.0)
(0.8306875710682655, 0.5175161303658079, 0.6628221028832032, 1.0)
(0.831781093034943, 0.5213458087981693, 0.6749494118117054, 1.0)
(0.8325928529853291, 0.5253446757844744, 0.6869376931865354, 1.0)
(0.8331304242651412, 0.5295114386920498, 0.698773225633891, 1.0)
(0.8334019041992173, 0.5338444716449702, 0.71044264614878, 1.0)
(0.833415896487632, 0.5383418193146124, 0.7219329777744575, 1.0)
(0.8331814925220116, 0.5430012014091432, 0.7332316564779161, 1.0)
(0.8327082516597568, 0.5478200178534429, 0.7443265571641985, 1.0)
(0.832006180496077, 0.552795354649532, 0.7552060187739601, 1.0)
(0.8310857111758566, 0.5579239904061606, 0.765858868410509, 1.0)
(0.8299576787894204, 0.5632024035248271, 0.7762744444444445, 1.0)
(0.8286332978982133, 0.5686267800281248, 0.7864426185460244, 1.0)
(0.827124138238282, 0.5741930220149737, 0.796353816597497, 1.0)
(0.825442099651216, 0.5798967567259778, 0.8059990384398479, 1.0)
(0.8235993862938871, 0.5857333462008708, 0.8153698764107113, 1.0)
(0.821608480179902, 0.5916978975087561, 0.8244585326325982, 1.0)
(0.8194821141071595, 0.597785273530641, 0.8332578350130668, 1.0)
(0.8172332440272755, 0.6039901042725871, 0.8417612519210355, 1.0)
(0.814875020913895, 0.6103067986866638, 0.8499629055060692, 1.0)
(0.812420762188067, 0.6167295569758052, 0.8578575836301946, 1.0)
(0.809883922759887, 0.6232523833576228, 0.8654407503845682, 1.0)
(0.8072780657465353, 0.6298690992612296, 0.8727085551661735, 1.0)
(0.8046168329276406, 0.6365733569301846, 0.8796578402926125, 1.0)
(0.8019139149995763, 0.6433586534037702, 0.8862861471360158, 1.0)
(0.7991830216908599, 0.6502183448479701, 0.8925917207600751, 1.0)
(0.7964378518012613, 0.6571456612067331, 0.8985735130472496, 1.0)
(0.7936920632275369, 0.6641337211433709, 0.9042311843062529, 1.0)
(0.7909592430388956, 0.6711755472412725, 0.909565103353025, 1.0)
(0.7882528776653618, 0.6782640814325028, 0.9145763460615122, 1.0)
(0.7855863232621401, 0.6853922006222988, 0.9192666923836995, 1.0)
(0.7829727763128884, 0.6925527324769974, 0.9236386218414918, 1.0)
(0.7804252445344994, 0.6997384713424936, 0.9276953074961729, 1.0)
(0.7779565181455343, 0.7069421942599752, 0.9314406084043191, 1.0)
(0.7755791415598958, 0.7141566770453828, 0.9348790605721731, 1.0)
(0.7733053855666262, 0.7213747103988148, 0.9380158664236004, 1.0)
(0.771147220055902, 0.7285891160099365, 0.9408568827998472, 1.0)
(0.769116287350359, 0.7357927626253576, 0.9434086075123853, 1.0)
(0.7672238761998175, 0.7429785820439159, 0.9456781644731656, 1.0)
(0.7654808964963004, 0.750139585005845, 0.9476732874295974, 1.0)
(0.763897854764939, 0.7572688769419182, 0.9494023023345208, 1.0)
(0.7624848304849502, 0.7643596735488288, 0.9508741083843375, 1.0)
(0.7612514532933455, 0.7714053161573218, 0.9520981577613095, 1.0)
(0.7602068811223923, 0.7783992868598992, 0.9530844341188127, 1.0)
(0.7593597793201138, 0.7853352233653041, 0.9538434298510479, 1.0)
(0.7587183008012618, 0.7922069335474338, 0.9543861221913403, 1.0)
(0.7582900672742546, 0.799008409656843, 0.9547239481857313, 1.0)
(0.7580821515875237, 0.8057338421635857, 0.9548687785910233, 1.0)
(0.7581010612365786, 0.8123776332007712, 0.9548328907488411, 1.0)
(0.7583527230708712, 0.8189344095789305, 0.9546289404895484, 1.0)
(0.7588424692372241, 0.8253990353420474, 0.9542699331220588, 1.0)
(0.7595750243941969, 0.8317666238369421, 0.9537691935676673, 1.0)
(0.7605544942292889, 0.8380325492685804, 0.9531403356980039, 1.0)
(0.7617843553083321, 0.8441924577148293, 0.9523972309390826, 1.0)
(0.7632674462838152, 0.850242277575182, 0.9515539762051686, 1.0)
(0.7650059604862026, 0.85617822942903, 0.9506248612278181, 1.0)
(0.7670014399195808, 0.8619968352801741, 0.9496243353469522, 1.0)
(0.7692547706801687, 0.8676949271654195, 0.948566973832207, 1.0)
(0.7717661798134018, 0.8732696551063165, 0.947467443804052, 1.0)
(0.7745352336224168, 0.8787184943843575, 0.9463404698252864, 1.0)
(0.7775608374378459, 0.8840392521212448, 0.9452007992345052, 1.0)
(0.7808412368558877, 0.8892300731471833, 0.9440631672939666, 1.0)
(0.7843740204486436, 0.8942894451415311, 0.9429422622250019, 1.0)
(0.7881561239477163, 0.8992162030315665, 0.9418526902046614, 1.0)
(0.7921838358990575, 0.9040095326365704, 0.9408089403977152, 1.0)
(0.7964528047840354, 0.908668973545918, 0.9398253500983916, 1.0)
(0.8009580475986687, 0.9131944212213802, 0.9389160700563687, 1.0)
(0.8056939598799596, 0.9175861283153747, 0.9380950300615061, 1.0)
(0.8106543271652416, 0.9218447051984724, 0.9373759048616408, 1.0)
(0.8158323378674701, 0.9259711196910422, 0.9367720804874462, 1.0)
(0.8212205975464022, 0.929966695995521, 0.936296621057897, 1.0)
(0.826811144552662, 0.9338331128274076, 0.9359622361392606, 1.0)
(0.8325954670187771, 0.9375724007447074, 0.9357812487297815, 1.0)
(0.8385645211683802, 0.9411869386771845, 0.9357655639413166, 1.0)
(0.8447087509119424, 0.94467944965842, 0.9359266384481265, 1.0)
(0.8510181086946101, 0.9480529957653149, 0.9362754507718345, 1.0)
(0.8574820775589871, 0.9513109722713152, 0.9368224724702245, 1.0)
(0.8640896943830253, 0.9544571010212727, 0.9375776402960758, 1.0)
(0.8708295742505839, 0.957495423037482, 0.9385503293906091, 1.0)
(0.8776899359096741, 0.9604302903680535, 0.9397493275743778, 1.0)
(0.8846586282709467, 0.9632663571903799, 0.9411828107965424, 1.0)
(0.8917231578965971, 0.9660085701840486, 0.942858319801462, 1.0)
(0.8988707174275696, 0.9686621581891097, 0.944782738069391, 1.0)
(0.9060882148947342, 0.9712326211671591, 0.9469622710858077, 1.0)
(0.9133623038576015, 0.9737257184842087, 0.9494024269915201, 1.0)
(0.920679414312134, 0.9761474565358058, 0.9521079986631937, 1.0)
(0.9280257843073016, 0.9785040757363161, 0.9550830472713414, 1.0)
(0.935387492208237, 0.9808020368957101, 0.9583308873600971, 1.0)
(0.9427504895421589, 0.983048007008566, 0.9618540734902816, 1.0)
(0.9501006343616617, 0.9852488444813527, 0.9656543884843511, 1.0)
(0.957423725058525, 0.9874115838253467, 0.9697328333088168, 1.0)
(0.9647055345598645, 0.9895434198437888, 0.9740896186266301, 1.0)
(0.9719318448372509, 0.9916516913430937, 0.9787241580488574, 1.0)
(0.9790884816583497, 0.9937438643990664, 0.983635063111714, 1.0)
(0.9861613495096943, 0.9958275152101835, 0.9888201400017161, 1.0)
(0.9931364666184066, 0.997910312571035, 0.9942763880483225, 1.0)
(1.0, 1.0, 1.0, 1.0)
