{
    "bands": {
        "histograms": [
            {
                "variables": [
                    "temp",
                    "OH"
                ],
                "dims": [
                    17,
                    17
                ],
                "edges": "bands",
                "type": "float",
                "file": "bands.hist.temp.OH.bin"
            },
            {
                "variables": [
                    "temp"
                ],
                "dims": [
                    3
                ],
                "edges": "bands",
                "type": "float",
                "file": "bands.hist.temp.bin"
            },
            {
                "variables": [
                    "OH"
                ],
                "dims": [
                    3
                ],
                "edges": "bands",
                "type": "float",
                "file": "bands.hist.OH.bin"
            }
        ],
        "moments": [
            {
                "variable": "OH",
                "files": {
                    "mean": "bands.mean.OH.bin",
                    "variance": "bands.variance.OH.bin",
                    "skewness": "bands.skewness.OH.bin",
                    "kurtosis": "bands.kurtosis.OH.bin"
                },
                "type": "float"
            },
            {
                "variable": "H2O",
                "files": {
                    "mean": "bands.mean.H2O.bin",
                    "variance": "bands.variance.H2O.bin",
                    "skewness": "bands.skewness.H2O.bin",
                    "kurtosis": "bands.kurtosis.H2O.bin"
                },
                "type": "float"
            },
            {
                "variable": "H2O2",
                "files": {
                    "mean": "bands.mean.H2O2.bin",
                    "variance": "bands.variance.H2O2.bin",
                    "skewness": "bands.skewness.H2O2.bin",
                    "kurtosis": "bands.kurtosis.H2O2.bin"
                },
                "type": "float"
            },
            {
                "variable": "pressure",
                "files": {
                    "mean": "bands.mean.pressure.bin",
                    "variance": "bands.variance.pressure.bin",
                    "skewness": "bands.skewness.pressure.bin",
                    "kurtosis": "bands.kurtosis.pressure.bin"
                },
                "type": "float"
            },
            {
                "variable": "temp",
                "files": {
                    "mean": "bands.mean.temp.bin",
                    "variance": "bands.variance.temp.bin",
                    "skewness": "bands.skewness.temp.bin",
                    "kurtosis": "bands.kurtosis.temp.bin"
                },
                "type": "float"
            },
            {
                "variable": "velx",
                "files": {
                    "mean": "bands.mean.velx.bin",
                    "variance": "bands.variance.velx.bin",
                    "skewness": "bands.skewness.velx.bin",
                    "kurtosis": "bands.kurtosis.velx.bin"
                },
                "type": "float"
            },
            {
                "variable": "vely",
                "files": {
                    "mean": "bands.mean.vely.bin",
                    "variance": "bands.variance.vely.bin",
                    "skewness": "bands.skewness.vely.bin",
                    "kurtosis": "bands.kurtosis.vely.bin"
                },
                "type": "float"
            },
            {
                "variable": "velz",
                "files": {
                    "mean": "bands.mean.velz.bin",
                    "variance": "bands.variance.velz.bin",
                    "skewness": "bands.skewness.velz.bin",
                    "kurtosis": "bands.kurtosis.velz.bin"
                },
                "type": "float"
            },
            {
                "variable": "velx_0",
                "files": {
                    "mean": "bands.mean.velx_0.bin",
                    "variance": "bands.variance.velx_0.bin",
                    "skewness": "bands.skewness.velx_0.bin",
                    "kurtosis": "bands.kurtosis.velx_0.bin"
                },
                "type": "float"
            },
            {
                "variable": "vely_0",
                "files": {
                    "mean": "bands.mean.vely_0.bin",
                    "variance": "bands.variance.vely_0.bin",
                    "skewness": "bands.skewness.vely_0.bin",
                    "kurtosis": "bands.kurtosis.vely_0.bin"
                },
                "type": "float"
            },
            {
                "variable": "velz_0",
                "files": {
                    "mean": "bands.mean.velz_0.bin",
                    "variance": "bands.variance.velz_0.bin",
                    "skewness": "bands.skewness.velz_0.bin",
                    "kurtosis": "bands.kurtosis.velz_0.bin"
                },
                "type": "float"
            },
            {
                "variable": "velx_1",
                "files": {
                    "mean": "bands.mean.velx_1.bin",
                    "variance": "bands.variance.velx_1.bin",
                    "skewness": "bands.skewness.velx_1.bin",
                    "kurtosis": "bands.kurtosis.velx_1.bin"
                },
                "type": "float"
            },
            {
                "variable": "vely_1",
                "files": {
                    "mean": "bands.mean.vely_1.bin",
                    "variance": "bands.variance.vely_1.bin",
                    "skewness": "bands.skewness.vely_1.bin",
                    "kurtosis": "bands.kurtosis.vely_1.bin"
                },
                "type": "float"
            },
            {
                "variable": "velz_1",
                "files": {
                    "mean": "bands.mean.velz_1.bin",
                    "variance": "bands.variance.velz_1.bin",
                    "skewness": "bands.skewness.velz_1.bin",
                    "kurtosis": "bands.kurtosis.velz_1.bin"
                },
                "type": "float"
            },
            {
                "variable": "velx_2",
                "files": {
                    "mean": "bands.mean.velx_2.bin",
                    "variance": "bands.variance.velx_2.bin",
                    "skewness": "bands.skewness.velx_2.bin",
                    "kurtosis": "bands.kurtosis.velx_2.bin"
                },
                "type": "float"
            },
            {
                "variable": "vely_2",
                "files": {
                    "mean": "bands.mean.vely_2.bin",
                    "variance": "bands.variance.vely_2.bin",
                    "skewness": "bands.skewness.vely_2.bin",
                    "kurtosis": "bands.kurtosis.vely_2.bin"
                },
                "type": "float"
            },
            {
                "variable": "velz_2",
                "files": {
                    "mean": "bands.mean.velz_2.bin",
                    "variance": "bands.variance.velz_2.bin",
                    "skewness": "bands.skewness.velz_2.bin",
                    "kurtosis": "bands.kurtosis.velz_2.bin"
                },
                "type": "float"
            },
            {
                "variable": "velx_3",
                "files": {
                    "mean": "bands.mean.velx_3.bin",
                    "variance": "bands.variance.velx_3.bin",
                    "skewness": "bands.skewness.velx_3.bin",
                    "kurtosis": "bands.kurtosis.velx_3.bin"
                },
                "type": "float"
            },
            {
                "variable": "vely_3",
                "files": {
                    "mean": "bands.mean.vely_3.bin",
                    "variance": "bands.variance.vely_3.bin",
                    "skewness": "bands.skewness.vely_3.bin",
                    "kurtosis": "bands.kurtosis.vely_3.bin"
                },
                "type": "float"
            },
            {
                "variable": "velz_3",
                "files": {
                    "mean": "bands.mean.velz_3.bin",
                    "variance": "bands.variance.velz_3.bin",
                    "skewness": "bands.skewness.velz_3.bin",
                    "kurtosis": "bands.kurtosis.velz_3.bin"
                },
                "type": "float"
            },
            {
                "variable": "velx_4",
                "files": {
                    "mean": "bands.mean.velx_4.bin",
                    "variance": "bands.variance.velx_4.bin",
                    "skewness": "bands.skewness.velx_4.bin",
                    "kurtosis": "bands.kurtosis.velx_4.bin"
                },
                "type": "float"
            },
            {
                "variable": "vely_4",
                "files": {
                    "mean": "bands.mean.vely_4.bin",
                    "variance": "bands.variance.vely_4.bin",
                    "skewness": "bands.skewness.vely_4.bin",
                    "kurtosis": "bands.kurtosis.vely_4.bin"
                },
                "type": "float"
            },
            {
                "variable": "velz_4",
                "files": {
                    "mean": "bands.mean.velz_4.bin",
                    "variance": "bands.variance.velz_4.bin",
                    "skewness": "bands.skewness.velz_4.bin",
                    "kurtosis": "bands.kurtosis.velz_4.bin"
                },
                "type": "float"
            },
            {
                "variable": "velx_5",
                "files": {
                    "mean": "bands.mean.velx_5.bin",
                    "variance": "bands.variance.velx_5.bin",
                    "skewness": "bands.skewness.velx_5.bin",
                    "kurtosis": "bands.kurtosis.velx_5.bin"
                },
                "type": "float"
            },
            {
                "variable": "vely_5",
                "files": {
                    "mean": "bands.mean.vely_5.bin",
                    "variance": "bands.variance.vely_5.bin",
                    "skewness": "bands.skewness.vely_5.bin",
                    "kurtosis": "bands.kurtosis.vely_5.bin"
                },
                "type": "float"
            },
            {
                "variable": "velz_5",
                "files": {
                    "mean": "bands.mean.velz_5.bin",
                    "variance": "bands.variance.velz_5.bin",
                    "skewness": "bands.skewness.velz_5.bin",
                    "kurtosis": "bands.kurtosis.velz_5.bin"
                },
                "type": "float"
            },
            {
                "variable": "velx_6",
                "files": {
                    "mean": "bands.mean.velx_6.bin",
                    "variance": "bands.variance.velx_6.bin",
                    "skewness": "bands.skewness.velx_6.bin",
                    "kurtosis": "bands.kurtosis.velx_6.bin"
                },
                "type": "float"
            },
            {
                "variable": "vely_6",
                "files": {
                    "mean": "bands.mean.vely_6.bin",
                    "variance": "bands.variance.vely_6.bin",
                    "skewness": "bands.skewness.vely_6.bin",
                    "kurtosis": "bands.kurtosis.vely_6.bin"
                },
                "type": "float"
            },
            {
                "variable": "velz_6",
                "files": {
                    "mean": "bands.mean.velz_6.bin",
                    "variance": "bands.variance.velz_6.bin",
                    "skewness": "bands.skewness.velz_6.bin",
                    "kurtosis": "bands.kurtosis.velz_6.bin"
                },
                "type": "float"
            },
            {
                "variable": "velx_7",
                "files": {
                    "mean": "bands.mean.velx_7.bin",
                    "variance": "bands.variance.velx_7.bin",
                    "skewness": "bands.skewness.velx_7.bin",
                    "kurtosis": "bands.kurtosis.velx_7.bin"
                },
                "type": "float"
            },
            {
                "variable": "vely_7",
                "files": {
                    "mean": "bands.mean.vely_7.bin",
                    "variance": "bands.variance.vely_7.bin",
                    "skewness": "bands.skewness.vely_7.bin",
                    "kurtosis": "bands.kurtosis.vely_7.bin"
                },
                "type": "float"
            },
            {
                "variable": "velz_7",
                "files": {
                    "mean": "bands.mean.velz_7.bin",
                    "variance": "bands.variance.velz_7.bin",
                    "skewness": "bands.skewness.velz_7.bin",
                    "kurtosis": "bands.kurtosis.velz_7.bin"
                },
                "type": "float"
            }
        ],
        "co-moments": [
            {
                "variables": [
                    "temp",
                    "OH"
                ],
                "type": "float",
                "files": {
                    "covariance": "bands.covariance.temp.OH.bin",
                    "coskewness": "bands.coskewness.temp.OH.bin",
                    "cokurtosis": "bands.cokurtosis.temp.OH.bin"
                }
            }
        ],
        "spectral_energy": [
            {
                "variable": "H2O",
                "scale_decomposition": [
                    "0",
                    "1",
                    "2",
                    "3",
                    "4",
                    "5",
                    "6",
                    "7"
                ],
                "files": [
                    "bands.spectral_energy.H2O_0.bin",
                    "bands.spectral_energy.H2O_1.bin",
                    "bands.spectral_energy.H2O_2.bin",
                    "bands.spectral_energy.H2O_3.bin",
                    "bands.spectral_energy.H2O_4.bin",
                    "bands.spectral_energy.H2O_5.bin",
                    "bands.spectral_energy.H2O_6.bin",
                    "bands.spectral_energy.H2O_7.bin"
                ],
                "type": "float"
            },
            {
                "variable": "H2O2",
                "scale_decomposition": [
                    "0",
                    "1",
                    "2",
                    "3",
                    "4",
                    "5",
                    "6",
                    "7"
                ],
                "files": [
                    "bands.spectral_energy.H2O2_0.bin",
                    "bands.spectral_energy.H2O2_1.bin",
                    "bands.spectral_energy.H2O2_2.bin",
                    "bands.spectral_energy.H2O2_3.bin",
                    "bands.spectral_energy.H2O2_4.bin",
                    "bands.spectral_energy.H2O2_5.bin",
                    "bands.spectral_energy.H2O2_6.bin",
                    "bands.spectral_energy.H2O2_7.bin"
                ],
                "type": "float"
            },
            {
                "variable": "OH",
                "scale_decomposition": [
                    "0",
                    "1",
                    "2",
                    "3",
                    "4",
                    "5",
                    "6",
                    "7"
                ],
                "files": [
                    "bands.spectral_energy.OH_0.bin",
                    "bands.spectral_energy.OH_1.bin",
                    "bands.spectral_energy.OH_2.bin",
                    "bands.spectral_energy.OH_3.bin",
                    "bands.spectral_energy.OH_4.bin",
                    "bands.spectral_energy.OH_5.bin",
                    "bands.spectral_energy.OH_6.bin",
                    "bands.spectral_energy.OH_7.bin"
                ],
                "type": "float"
            },
            {
                "variable": "pressure",
                "scale_decomposition": [
                    "0",
                    "1",
                    "2",
                    "3",
                    "4",
                    "5",
                    "6",
                    "7"
                ],
                "files": [
                    "bands.spectral_energy.pressure_0.bin",
                    "bands.spectral_energy.pressure_1.bin",
                    "bands.spectral_energy.pressure_2.bin",
                    "bands.spectral_energy.pressure_3.bin",
                    "bands.spectral_energy.pressure_4.bin",
                    "bands.spectral_energy.pressure_5.bin",
                    "bands.spectral_energy.pressure_6.bin",
                    "bands.spectral_energy.pressure_7.bin"
                ],
                "type": "float"
            },
            {
                "variable": "temp",
                "scale_decomposition": [
                    "0",
                    "1",
                    "2",
                    "3",
                    "4",
                    "5",
                    "6",
                    "7"
                ],
                "files": [
                    "bands.spectral_energy.temp_0.bin",
                    "bands.spectral_energy.temp_1.bin",
                    "bands.spectral_energy.temp_2.bin",
                    "bands.spectral_energy.temp_3.bin",
                    "bands.spectral_energy.temp_4.bin",
                    "bands.spectral_energy.temp_5.bin",
                    "bands.spectral_energy.temp_6.bin",
                    "bands.spectral_energy.temp_7.bin"
                ],
                "type": "float"
            },
            {
                "variable": "velx",
                "scale_decomposition": [
                    "0",
                    "1",
                    "2",
                    "3",
                    "4",
                    "5",
                    "6",
                    "7"
                ],
                "files": [
                    "bands.spectral_energy.velx_0.bin",
                    "bands.spectral_energy.velx_1.bin",
                    "bands.spectral_energy.velx_2.bin",
                    "bands.spectral_energy.velx_3.bin",
                    "bands.spectral_energy.velx_4.bin",
                    "bands.spectral_energy.velx_5.bin",
                    "bands.spectral_energy.velx_6.bin",
                    "bands.spectral_energy.velx_7.bin"
                ],
                "type": "float"
            },
            {
                "variable": "vely",
                "scale_decomposition": [
                    "0",
                    "1",
                    "2",
                    "3",
                    "4",
                    "5",
                    "6",
                    "7"
                ],
                "files": [
                    "bands.spectral_energy.vely_0.bin",
                    "bands.spectral_energy.vely_1.bin",
                    "bands.spectral_energy.vely_2.bin",
                    "bands.spectral_energy.vely_3.bin",
                    "bands.spectral_energy.vely_4.bin",
                    "bands.spectral_energy.vely_5.bin",
                    "bands.spectral_energy.vely_6.bin",
                    "bands.spectral_energy.vely_7.bin"
                ],
                "type": "float"
            },
            {
                "variable": "velz",
                "scale_decomposition": [
                    "0",
                    "1",
                    "2",
                    "3",
                    "4",
                    "5",
                    "6",
                    "7"
                ],
                "files": [
                    "bands.spectral_energy.velz_0.bin",
                    "bands.spectral_energy.velz_1.bin",
                    "bands.spectral_energy.velz_2.bin",
                    "bands.spectral_energy.velz_3.bin",
                    "bands.spectral_energy.velz_4.bin",
                    "bands.spectral_energy.velz_5.bin",
                    "bands.spectral_energy.velz_6.bin",
                    "bands.spectral_energy.velz_7.bin"
                ],
                "type": "float"
            }
        ],
        "band_edges": [
            [
                -9.0,
                -6.0
            ],
            [
                -6.0,
                -3.0
            ],
            [
                -6.0,
                0.0
            ]
        ],
        "count": 3
    },
    "components": {
        "histograms": [
            {
                "variables": [
                    "temp",
                    "OH"
                ],
                "dims": [
                    17,
                    17
                ],
                "edges": "bands",
                "type": "float",
                "file": "components.hist.temp.OH.bin"
            },
            {
                "variables": [
                    "temp"
                ],
                "dims": [
                    3
                ],
                "edges": "bands",
                "type": "float",
                "file": "components.hist.temp.bin"
            },
            {
                "variables": [
                    "OH"
                ],
                "dims": [
                    3
                ],
                "edges": "bands",
                "type": "float",
                "file": "components.hist.OH.bin"
            }
        ],
        "moments": [
            {
                "variable": "OH",
                "files": {
                    "mean": "components.mean.OH.bin",
                    "variance": "components.variance.OH.bin",
                    "skewness": "components.skewness.OH.bin",
                    "kurtosis": "components.kurtosis.OH.bin"
                },
                "type": "float"
            },
            {
                "variable": "H2O",
                "files": {
                    "mean": "components.mean.H2O.bin",
                    "variance": "components.variance.H2O.bin",
                    "skewness": "components.skewness.H2O.bin",
                    "kurtosis": "components.kurtosis.H2O.bin"
                },
                "type": "float"
            },
            {
                "variable": "H2O2",
                "files": {
                    "mean": "components.mean.H2O2.bin",
                    "variance": "components.variance.H2O2.bin",
                    "skewness": "components.skewness.H2O2.bin",
                    "kurtosis": "components.kurtosis.H2O2.bin"
                },
                "type": "float"
            },
            {
                "variable": "pressure",
                "files": {
                    "mean": "components.mean.pressure.bin",
                    "variance": "components.variance.pressure.bin",
                    "skewness": "components.skewness.pressure.bin",
                    "kurtosis": "components.kurtosis.pressure.bin"
                },
                "type": "float"
            },
            {
                "variable": "temp",
                "files": {
                    "mean": "components.mean.temp.bin",
                    "variance": "components.variance.temp.bin",
                    "skewness": "components.skewness.temp.bin",
                    "kurtosis": "components.kurtosis.temp.bin"
                },
                "type": "float"
            },
            {
                "variable": "velx",
                "files": {
                    "mean": "components.mean.velx.bin",
                    "variance": "components.variance.velx.bin",
                    "skewness": "components.skewness.velx.bin",
                    "kurtosis": "components.kurtosis.velx.bin"
                },
                "type": "float"
            },
            {
                "variable": "vely",
                "files": {
                    "mean": "components.mean.vely.bin",
                    "variance": "components.variance.vely.bin",
                    "skewness": "components.skewness.vely.bin",
                    "kurtosis": "components.kurtosis.vely.bin"
                },
                "type": "float"
            },
            {
                "variable": "velz",
                "files": {
                    "mean": "components.mean.velz.bin",
                    "variance": "components.variance.velz.bin",
                    "skewness": "components.skewness.velz.bin",
                    "kurtosis": "components.kurtosis.velz.bin"
                },
                "type": "float"
            },
            {
                "variable": "velx_0",
                "files": {
                    "mean": "components.mean.velx_0.bin",
                    "variance": "components.variance.velx_0.bin",
                    "skewness": "components.skewness.velx_0.bin",
                    "kurtosis": "components.kurtosis.velx_0.bin"
                },
                "type": "float"
            },
            {
                "variable": "vely_0",
                "files": {
                    "mean": "components.mean.vely_0.bin",
                    "variance": "components.variance.vely_0.bin",
                    "skewness": "components.skewness.vely_0.bin",
                    "kurtosis": "components.kurtosis.vely_0.bin"
                },
                "type": "float"
            },
            {
                "variable": "velz_0",
                "files": {
                    "mean": "components.mean.velz_0.bin",
                    "variance": "components.variance.velz_0.bin",
                    "skewness": "components.skewness.velz_0.bin",
                    "kurtosis": "components.kurtosis.velz_0.bin"
                },
                "type": "float"
            },
            {
                "variable": "velx_1",
                "files": {
                    "mean": "components.mean.velx_1.bin",
                    "variance": "components.variance.velx_1.bin",
                    "skewness": "components.skewness.velx_1.bin",
                    "kurtosis": "components.kurtosis.velx_1.bin"
                },
                "type": "float"
            },
            {
                "variable": "vely_1",
                "files": {
                    "mean": "components.mean.vely_1.bin",
                    "variance": "components.variance.vely_1.bin",
                    "skewness": "components.skewness.vely_1.bin",
                    "kurtosis": "components.kurtosis.vely_1.bin"
                },
                "type": "float"
            },
            {
                "variable": "velz_1",
                "files": {
                    "mean": "components.mean.velz_1.bin",
                    "variance": "components.variance.velz_1.bin",
                    "skewness": "components.skewness.velz_1.bin",
                    "kurtosis": "components.kurtosis.velz_1.bin"
                },
                "type": "float"
            },
            {
                "variable": "velx_2",
                "files": {
                    "mean": "components.mean.velx_2.bin",
                    "variance": "components.variance.velx_2.bin",
                    "skewness": "components.skewness.velx_2.bin",
                    "kurtosis": "components.kurtosis.velx_2.bin"
                },
                "type": "float"
            },
            {
                "variable": "vely_2",
                "files": {
                    "mean": "components.mean.vely_2.bin",
                    "variance": "components.variance.vely_2.bin",
                    "skewness": "components.skewness.vely_2.bin",
                    "kurtosis": "components.kurtosis.vely_2.bin"
                },
                "type": "float"
            },
            {
                "variable": "velz_2",
                "files": {
                    "mean": "components.mean.velz_2.bin",
                    "variance": "components.variance.velz_2.bin",
                    "skewness": "components.skewness.velz_2.bin",
                    "kurtosis": "components.kurtosis.velz_2.bin"
                },
                "type": "float"
            },
            {
                "variable": "velx_3",
                "files": {
                    "mean": "components.mean.velx_3.bin",
                    "variance": "components.variance.velx_3.bin",
                    "skewness": "components.skewness.velx_3.bin",
                    "kurtosis": "components.kurtosis.velx_3.bin"
                },
                "type": "float"
            },
            {
                "variable": "vely_3",
                "files": {
                    "mean": "components.mean.vely_3.bin",
                    "variance": "components.variance.vely_3.bin",
                    "skewness": "components.skewness.vely_3.bin",
                    "kurtosis": "components.kurtosis.vely_3.bin"
                },
                "type": "float"
            },
            {
                "variable": "velz_3",
                "files": {
                    "mean": "components.mean.velz_3.bin",
                    "variance": "components.variance.velz_3.bin",
                    "skewness": "components.skewness.velz_3.bin",
                    "kurtosis": "components.kurtosis.velz_3.bin"
                },
                "type": "float"
            },
            {
                "variable": "velx_4",
                "files": {
                    "mean": "components.mean.velx_4.bin",
                    "variance": "components.variance.velx_4.bin",
                    "skewness": "components.skewness.velx_4.bin",
                    "kurtosis": "components.kurtosis.velx_4.bin"
                },
                "type": "float"
            },
            {
                "variable": "vely_4",
                "files": {
                    "mean": "components.mean.vely_4.bin",
                    "variance": "components.variance.vely_4.bin",
                    "skewness": "components.skewness.vely_4.bin",
                    "kurtosis": "components.kurtosis.vely_4.bin"
                },
                "type": "float"
            },
            {
                "variable": "velz_4",
                "files": {
                    "mean": "components.mean.velz_4.bin",
                    "variance": "components.variance.velz_4.bin",
                    "skewness": "components.skewness.velz_4.bin",
                    "kurtosis": "components.kurtosis.velz_4.bin"
                },
                "type": "float"
            },
            {
                "variable": "velx_5",
                "files": {
                    "mean": "components.mean.velx_5.bin",
                    "variance": "components.variance.velx_5.bin",
                    "skewness": "components.skewness.velx_5.bin",
                    "kurtosis": "components.kurtosis.velx_5.bin"
                },
                "type": "float"
            },
            {
                "variable": "vely_5",
                "files": {
                    "mean": "components.mean.vely_5.bin",
                    "variance": "components.variance.vely_5.bin",
                    "skewness": "components.skewness.vely_5.bin",
                    "kurtosis": "components.kurtosis.vely_5.bin"
                },
                "type": "float"
            },
            {
                "variable": "velz_5",
                "files": {
                    "mean": "components.mean.velz_5.bin",
                    "variance": "components.variance.velz_5.bin",
                    "skewness": "components.skewness.velz_5.bin",
                    "kurtosis": "components.kurtosis.velz_5.bin"
                },
                "type": "float"
            },
            {
                "variable": "velx_6",
                "files": {
                    "mean": "components.mean.velx_6.bin",
                    "variance": "components.variance.velx_6.bin",
                    "skewness": "components.skewness.velx_6.bin",
                    "kurtosis": "components.kurtosis.velx_6.bin"
                },
                "type": "float"
            },
            {
                "variable": "vely_6",
                "files": {
                    "mean": "components.mean.vely_6.bin",
                    "variance": "components.variance.vely_6.bin",
                    "skewness": "components.skewness.vely_6.bin",
                    "kurtosis": "components.kurtosis.vely_6.bin"
                },
                "type": "float"
            },
            {
                "variable": "velz_6",
                "files": {
                    "mean": "components.mean.velz_6.bin",
                    "variance": "components.variance.velz_6.bin",
                    "skewness": "components.skewness.velz_6.bin",
                    "kurtosis": "components.kurtosis.velz_6.bin"
                },
                "type": "float"
            },
            {
                "variable": "velx_7",
                "files": {
                    "mean": "components.mean.velx_7.bin",
                    "variance": "components.variance.velx_7.bin",
                    "skewness": "components.skewness.velx_7.bin",
                    "kurtosis": "components.kurtosis.velx_7.bin"
                },
                "type": "float"
            },
            {
                "variable": "vely_7",
                "files": {
                    "mean": "components.mean.vely_7.bin",
                    "variance": "components.variance.vely_7.bin",
                    "skewness": "components.skewness.vely_7.bin",
                    "kurtosis": "components.kurtosis.vely_7.bin"
                },
                "type": "float"
            },
            {
                "variable": "velz_7",
                "files": {
                    "mean": "components.mean.velz_7.bin",
                    "variance": "components.variance.velz_7.bin",
                    "skewness": "components.skewness.velz_7.bin",
                    "kurtosis": "components.kurtosis.velz_7.bin"
                },
                "type": "float"
            }
        ],
        "co-moments": [
            {
                "variables": [
                    "temp",
                    "OH"
                ],
                "type": "float",
                "files": {
                    "covariance": "components.covariance.temp.OH.bin",
                    "coskewness": "components.coskewness.temp.OH.bin",
                    "cokurtosis": "components.cokurtosis.temp.OH.bin"
                }
            }
        ],
        "spectral_energy": [
            {
                "variable": "H2O",
                "scale_decomposition": [
                    "0",
                    "1",
                    "2",
                    "3",
                    "4",
                    "5",
                    "6",
                    "7"
                ],
                "files": [
                    "components.spectral_energy.H2O_0.bin",
                    "components.spectral_energy.H2O_1.bin",
                    "components.spectral_energy.H2O_2.bin",
                    "components.spectral_energy.H2O_3.bin",
                    "components.spectral_energy.H2O_4.bin",
                    "components.spectral_energy.H2O_5.bin",
                    "components.spectral_energy.H2O_6.bin",
                    "components.spectral_energy.H2O_7.bin"
                ],
                "type": "float"
            },
            {
                "variable": "H2O2",
                "scale_decomposition": [
                    "0",
                    "1",
                    "2",
                    "3",
                    "4",
                    "5",
                    "6",
                    "7"
                ],
                "files": [
                    "components.spectral_energy.H2O2_0.bin",
                    "components.spectral_energy.H2O2_1.bin",
                    "components.spectral_energy.H2O2_2.bin",
                    "components.spectral_energy.H2O2_3.bin",
                    "components.spectral_energy.H2O2_4.bin",
                    "components.spectral_energy.H2O2_5.bin",
                    "components.spectral_energy.H2O2_6.bin",
                    "components.spectral_energy.H2O2_7.bin"
                ],
                "type": "float"
            },
            {
                "variable": "OH",
                "scale_decomposition": [
                    "0",
                    "1",
                    "2",
                    "3",
                    "4",
                    "5",
                    "6",
                    "7"
                ],
                "files": [
                    "components.spectral_energy.OH_0.bin",
                    "components.spectral_energy.OH_1.bin",
                    "components.spectral_energy.OH_2.bin",
                    "components.spectral_energy.OH_3.bin",
                    "components.spectral_energy.OH_4.bin",
                    "components.spectral_energy.OH_5.bin",
                    "components.spectral_energy.OH_6.bin",
                    "components.spectral_energy.OH_7.bin"
                ],
                "type": "float"
            },
            {
                "variable": "pressure",
                "scale_decomposition": [
                    "0",
                    "1",
                    "2",
                    "3",
                    "4",
                    "5",
                    "6",
                    "7"
                ],
                "files": [
                    "components.spectral_energy.pressure_0.bin",
                    "components.spectral_energy.pressure_1.bin",
                    "components.spectral_energy.pressure_2.bin",
                    "components.spectral_energy.pressure_3.bin",
                    "components.spectral_energy.pressure_4.bin",
                    "components.spectral_energy.pressure_5.bin",
                    "components.spectral_energy.pressure_6.bin",
                    "components.spectral_energy.pressure_7.bin"
                ],
                "type": "float"
            },
            {
                "variable": "temp",
                "scale_decomposition": [
                    "0",
                    "1",
                    "2",
                    "3",
                    "4",
                    "5",
                    "6",
                    "7"
                ],
                "files": [
                    "components.spectral_energy.temp_0.bin",
                    "components.spectral_energy.temp_1.bin",
                    "components.spectral_energy.temp_2.bin",
                    "components.spectral_energy.temp_3.bin",
                    "components.spectral_energy.temp_4.bin",
                    "components.spectral_energy.temp_5.bin",
                    "components.spectral_energy.temp_6.bin",
                    "components.spectral_energy.temp_7.bin"
                ],
                "type": "float"
            },
            {
                "variable": "velx",
                "scale_decomposition": [
                    "0",
                    "1",
                    "2",
                    "3",
                    "4",
                    "5",
                    "6",
                    "7"
                ],
                "files": [
                    "components.spectral_energy.velx_0.bin",
                    "components.spectral_energy.velx_1.bin",
                    "components.spectral_energy.velx_2.bin",
                    "components.spectral_energy.velx_3.bin",
                    "components.spectral_energy.velx_4.bin",
                    "components.spectral_energy.velx_5.bin",
                    "components.spectral_energy.velx_6.bin",
                    "components.spectral_energy.velx_7.bin"
                ],
                "type": "float"
            },
            {
                "variable": "vely",
                "scale_decomposition": [
                    "0",
                    "1",
                    "2",
                    "3",
                    "4",
                    "5",
                    "6",
                    "7"
                ],
                "files": [
                    "components.spectral_energy.vely_0.bin",
                    "components.spectral_energy.vely_1.bin",
                    "components.spectral_energy.vely_2.bin",
                    "components.spectral_energy.vely_3.bin",
                    "components.spectral_energy.vely_4.bin",
                    "components.spectral_energy.vely_5.bin",
                    "components.spectral_energy.vely_6.bin",
                    "components.spectral_energy.vely_7.bin"
                ],
                "type": "float"
            },
            {
                "variable": "velz",
                "scale_decomposition": [
                    "0",
                    "1",
                    "2",
                    "3",
                    "4",
                    "5",
                    "6",
                    "7"
                ],
                "files": [
                    "components.spectral_energy.velz_0.bin",
                    "components.spectral_energy.velz_1.bin",
                    "components.spectral_energy.velz_2.bin",
                    "components.spectral_energy.velz_3.bin",
                    "components.spectral_energy.velz_4.bin",
                    "components.spectral_energy.velz_5.bin",
                    "components.spectral_energy.velz_6.bin",
                    "components.spectral_energy.velz_7.bin"
                ],
                "type": "float"
            }
        ],
        "count": 348
    },
    "cells": {
        "histograms": [
            {
                "variables": [
                    "temp",
                    "OH"
                ],
                "dims": [
                    17,
                    17
                ],
                "edges": "bands",
                "type": "float",
                "file": "cells.hist.temp.OH.bin"
            },
            {
                "variables": [
                    "temp"
                ],
                "dims": [
                    3
                ],
                "edges": "bands",
                "type": "float",
                "file": "cells.hist.temp.bin"
            },
            {
                "variables": [
                    "OH"
                ],
                "dims": [
                    3
                ],
                "edges": "bands",
                "type": "float",
                "file": "cells.hist.OH.bin"
            }
        ],
        "moments": [
            {
                "variable": "OH",
                "files": {
                    "mean": "cells.mean.OH.bin",
                    "variance": "cells.variance.OH.bin",
                    "skewness": "cells.skewness.OH.bin",
                    "kurtosis": "cells.kurtosis.OH.bin"
                },
                "type": "float"
            },
            {
                "variable": "H2O",
                "files": {
                    "mean": "cells.mean.H2O.bin",
                    "variance": "cells.variance.H2O.bin",
                    "skewness": "cells.skewness.H2O.bin",
                    "kurtosis": "cells.kurtosis.H2O.bin"
                },
                "type": "float"
            },
            {
                "variable": "H2O2",
                "files": {
                    "mean": "cells.mean.H2O2.bin",
                    "variance": "cells.variance.H2O2.bin",
                    "skewness": "cells.skewness.H2O2.bin",
                    "kurtosis": "cells.kurtosis.H2O2.bin"
                },
                "type": "float"
            },
            {
                "variable": "pressure",
                "files": {
                    "mean": "cells.mean.pressure.bin",
                    "variance": "cells.variance.pressure.bin",
                    "skewness": "cells.skewness.pressure.bin",
                    "kurtosis": "cells.kurtosis.pressure.bin"
                },
                "type": "float"
            },
            {
                "variable": "temp",
                "files": {
                    "mean": "cells.mean.temp.bin",
                    "variance": "cells.variance.temp.bin",
                    "skewness": "cells.skewness.temp.bin",
                    "kurtosis": "cells.kurtosis.temp.bin"
                },
                "type": "float"
            },
            {
                "variable": "velx",
                "files": {
                    "mean": "cells.mean.velx.bin",
                    "variance": "cells.variance.velx.bin",
                    "skewness": "cells.skewness.velx.bin",
                    "kurtosis": "cells.kurtosis.velx.bin"
                },
                "type": "float"
            },
            {
                "variable": "vely",
                "files": {
                    "mean": "cells.mean.vely.bin",
                    "variance": "cells.variance.vely.bin",
                    "skewness": "cells.skewness.vely.bin",
                    "kurtosis": "cells.kurtosis.vely.bin"
                },
                "type": "float"
            },
            {
                "variable": "velz",
                "files": {
                    "mean": "cells.mean.velz.bin",
                    "variance": "cells.variance.velz.bin",
                    "skewness": "cells.skewness.velz.bin",
                    "kurtosis": "cells.kurtosis.velz.bin"
                },
                "type": "float"
            },
            {
                "variable": "velx_0",
                "files": {
                    "mean": "cells.mean.velx_0.bin",
                    "variance": "cells.variance.velx_0.bin",
                    "skewness": "cells.skewness.velx_0.bin",
                    "kurtosis": "cells.kurtosis.velx_0.bin"
                },
                "type": "float"
            },
            {
                "variable": "vely_0",
                "files": {
                    "mean": "cells.mean.vely_0.bin",
                    "variance": "cells.variance.vely_0.bin",
                    "skewness": "cells.skewness.vely_0.bin",
                    "kurtosis": "cells.kurtosis.vely_0.bin"
                },
                "type": "float"
            },
            {
                "variable": "velz_0",
                "files": {
                    "mean": "cells.mean.velz_0.bin",
                    "variance": "cells.variance.velz_0.bin",
                    "skewness": "cells.skewness.velz_0.bin",
                    "kurtosis": "cells.kurtosis.velz_0.bin"
                },
                "type": "float"
            },
            {
                "variable": "velx_1",
                "files": {
                    "mean": "cells.mean.velx_1.bin",
                    "variance": "cells.variance.velx_1.bin",
                    "skewness": "cells.skewness.velx_1.bin",
                    "kurtosis": "cells.kurtosis.velx_1.bin"
                },
                "type": "float"
            },
            {
                "variable": "vely_1",
                "files": {
                    "mean": "cells.mean.vely_1.bin",
                    "variance": "cells.variance.vely_1.bin",
                    "skewness": "cells.skewness.vely_1.bin",
                    "kurtosis": "cells.kurtosis.vely_1.bin"
                },
                "type": "float"
            },
            {
                "variable": "velz_1",
                "files": {
                    "mean": "cells.mean.velz_1.bin",
                    "variance": "cells.variance.velz_1.bin",
                    "skewness": "cells.skewness.velz_1.bin",
                    "kurtosis": "cells.kurtosis.velz_1.bin"
                },
                "type": "float"
            },
            {
                "variable": "velx_2",
                "files": {
                    "mean": "cells.mean.velx_2.bin",
                    "variance": "cells.variance.velx_2.bin",
                    "skewness": "cells.skewness.velx_2.bin",
                    "kurtosis": "cells.kurtosis.velx_2.bin"
                },
                "type": "float"
            },
            {
                "variable": "vely_2",
                "files": {
                    "mean": "cells.mean.vely_2.bin",
                    "variance": "cells.variance.vely_2.bin",
                    "skewness": "cells.skewness.vely_2.bin",
                    "kurtosis": "cells.kurtosis.vely_2.bin"
                },
                "type": "float"
            },
            {
                "variable": "velz_2",
                "files": {
                    "mean": "cells.mean.velz_2.bin",
                    "variance": "cells.variance.velz_2.bin",
                    "skewness": "cells.skewness.velz_2.bin",
                    "kurtosis": "cells.kurtosis.velz_2.bin"
                },
                "type": "float"
            },
            {
                "variable": "velx_3",
                "files": {
                    "mean": "cells.mean.velx_3.bin",
                    "variance": "cells.variance.velx_3.bin",
                    "skewness": "cells.skewness.velx_3.bin",
                    "kurtosis": "cells.kurtosis.velx_3.bin"
                },
                "type": "float"
            },
            {
                "variable": "vely_3",
                "files": {
                    "mean": "cells.mean.vely_3.bin",
                    "variance": "cells.variance.vely_3.bin",
                    "skewness": "cells.skewness.vely_3.bin",
                    "kurtosis": "cells.kurtosis.vely_3.bin"
                },
                "type": "float"
            },
            {
                "variable": "velz_3",
                "files": {
                    "mean": "cells.mean.velz_3.bin",
                    "variance": "cells.variance.velz_3.bin",
                    "skewness": "cells.skewness.velz_3.bin",
                    "kurtosis": "cells.kurtosis.velz_3.bin"
                },
                "type": "float"
            },
            {
                "variable": "velx_4",
                "files": {
                    "mean": "cells.mean.velx_4.bin",
                    "variance": "cells.variance.velx_4.bin",
                    "skewness": "cells.skewness.velx_4.bin",
                    "kurtosis": "cells.kurtosis.velx_4.bin"
                },
                "type": "float"
            },
            {
                "variable": "vely_4",
                "files": {
                    "mean": "cells.mean.vely_4.bin",
                    "variance": "cells.variance.vely_4.bin",
                    "skewness": "cells.skewness.vely_4.bin",
                    "kurtosis": "cells.kurtosis.vely_4.bin"
                },
                "type": "float"
            },
            {
                "variable": "velz_4",
                "files": {
                    "mean": "cells.mean.velz_4.bin",
                    "variance": "cells.variance.velz_4.bin",
                    "skewness": "cells.skewness.velz_4.bin",
                    "kurtosis": "cells.kurtosis.velz_4.bin"
                },
                "type": "float"
            },
            {
                "variable": "velx_5",
                "files": {
                    "mean": "cells.mean.velx_5.bin",
                    "variance": "cells.variance.velx_5.bin",
                    "skewness": "cells.skewness.velx_5.bin",
                    "kurtosis": "cells.kurtosis.velx_5.bin"
                },
                "type": "float"
            },
            {
                "variable": "vely_5",
                "files": {
                    "mean": "cells.mean.vely_5.bin",
                    "variance": "cells.variance.vely_5.bin",
                    "skewness": "cells.skewness.vely_5.bin",
                    "kurtosis": "cells.kurtosis.vely_5.bin"
                },
                "type": "float"
            },
            {
                "variable": "velz_5",
                "files": {
                    "mean": "cells.mean.velz_5.bin",
                    "variance": "cells.variance.velz_5.bin",
                    "skewness": "cells.skewness.velz_5.bin",
                    "kurtosis": "cells.kurtosis.velz_5.bin"
                },
                "type": "float"
            },
            {
                "variable": "velx_6",
                "files": {
                    "mean": "cells.mean.velx_6.bin",
                    "variance": "cells.variance.velx_6.bin",
                    "skewness": "cells.skewness.velx_6.bin",
                    "kurtosis": "cells.kurtosis.velx_6.bin"
                },
                "type": "float"
            },
            {
                "variable": "vely_6",
                "files": {
                    "mean": "cells.mean.vely_6.bin",
                    "variance": "cells.variance.vely_6.bin",
                    "skewness": "cells.skewness.vely_6.bin",
                    "kurtosis": "cells.kurtosis.vely_6.bin"
                },
                "type": "float"
            },
            {
                "variable": "velz_6",
                "files": {
                    "mean": "cells.mean.velz_6.bin",
                    "variance": "cells.variance.velz_6.bin",
                    "skewness": "cells.skewness.velz_6.bin",
                    "kurtosis": "cells.kurtosis.velz_6.bin"
                },
                "type": "float"
            },
            {
                "variable": "velx_7",
                "files": {
                    "mean": "cells.mean.velx_7.bin",
                    "variance": "cells.variance.velx_7.bin",
                    "skewness": "cells.skewness.velx_7.bin",
                    "kurtosis": "cells.kurtosis.velx_7.bin"
                },
                "type": "float"
            },
            {
                "variable": "vely_7",
                "files": {
                    "mean": "cells.mean.vely_7.bin",
                    "variance": "cells.variance.vely_7.bin",
                    "skewness": "cells.skewness.vely_7.bin",
                    "kurtosis": "cells.kurtosis.vely_7.bin"
                },
                "type": "float"
            },
            {
                "variable": "velz_7",
                "files": {
                    "mean": "cells.mean.velz_7.bin",
                    "variance": "cells.variance.velz_7.bin",
                    "skewness": "cells.skewness.velz_7.bin",
                    "kurtosis": "cells.kurtosis.velz_7.bin"
                },
                "type": "float"
            }
        ],
        "co-moments": [
            {
                "variables": [
                    "temp",
                    "OH"
                ],
                "type": "float",
                "files": {
                    "covariance": "cells.covariance.temp.OH.bin",
                    "coskewness": "cells.coskewness.temp.OH.bin",
                    "cokurtosis": "cells.cokurtosis.temp.OH.bin"
                }
            }
        ],
        "spectral_energy": [
            {
                "variable": "H2O",
                "scale_decomposition": [
                    "0",
                    "1",
                    "2",
                    "3",
                    "4",
                    "5",
                    "6",
                    "7"
                ],
                "files": [
                    "cells.spectral_energy.H2O_0.bin",
                    "cells.spectral_energy.H2O_1.bin",
                    "cells.spectral_energy.H2O_2.bin",
                    "cells.spectral_energy.H2O_3.bin",
                    "cells.spectral_energy.H2O_4.bin",
                    "cells.spectral_energy.H2O_5.bin",
                    "cells.spectral_energy.H2O_6.bin",
                    "cells.spectral_energy.H2O_7.bin"
                ],
                "type": "float"
            },
            {
                "variable": "H2O2",
                "scale_decomposition": [
                    "0",
                    "1",
                    "2",
                    "3",
                    "4",
                    "5",
                    "6",
                    "7"
                ],
                "files": [
                    "cells.spectral_energy.H2O2_0.bin",
                    "cells.spectral_energy.H2O2_1.bin",
                    "cells.spectral_energy.H2O2_2.bin",
                    "cells.spectral_energy.H2O2_3.bin",
                    "cells.spectral_energy.H2O2_4.bin",
                    "cells.spectral_energy.H2O2_5.bin",
                    "cells.spectral_energy.H2O2_6.bin",
                    "cells.spectral_energy.H2O2_7.bin"
                ],
                "type": "float"
            },
            {
                "variable": "OH",
                "scale_decomposition": [
                    "0",
                    "1",
                    "2",
                    "3",
                    "4",
                    "5",
                    "6",
                    "7"
                ],
                "files": [
                    "cells.spectral_energy.OH_0.bin",
                    "cells.spectral_energy.OH_1.bin",
                    "cells.spectral_energy.OH_2.bin",
                    "cells.spectral_energy.OH_3.bin",
                    "cells.spectral_energy.OH_4.bin",
                    "cells.spectral_energy.OH_5.bin",
                    "cells.spectral_energy.OH_6.bin",
                    "cells.spectral_energy.OH_7.bin"
                ],
                "type": "float"
            },
            {
                "variable": "pressure",
                "scale_decomposition": [
                    "0",
                    "1",
                    "2",
                    "3",
                    "4",
                    "5",
                    "6",
                    "7"
                ],
                "files": [
                    "cells.spectral_energy.pressure_0.bin",
                    "cells.spectral_energy.pressure_1.bin",
                    "cells.spectral_energy.pressure_2.bin",
                    "cells.spectral_energy.pressure_3.bin",
                    "cells.spectral_energy.pressure_4.bin",
                    "cells.spectral_energy.pressure_5.bin",
                    "cells.spectral_energy.pressure_6.bin",
                    "cells.spectral_energy.pressure_7.bin"
                ],
                "type": "float"
            },
            {
                "variable": "temp",
                "scale_decomposition": [
                    "0",
                    "1",
                    "2",
                    "3",
                    "4",
                    "5",
                    "6",
                    "7"
                ],
                "files": [
                    "cells.spectral_energy.temp_0.bin",
                    "cells.spectral_energy.temp_1.bin",
                    "cells.spectral_energy.temp_2.bin",
                    "cells.spectral_energy.temp_3.bin",
                    "cells.spectral_energy.temp_4.bin",
                    "cells.spectral_energy.temp_5.bin",
                    "cells.spectral_energy.temp_6.bin",
                    "cells.spectral_energy.temp_7.bin"
                ],
                "type": "float"
            },
            {
                "variable": "velx",
                "scale_decomposition": [
                    "0",
                    "1",
                    "2",
                    "3",
                    "4",
                    "5",
                    "6",
                    "7"
                ],
                "files": [
                    "cells.spectral_energy.velx_0.bin",
                    "cells.spectral_energy.velx_1.bin",
                    "cells.spectral_energy.velx_2.bin",
                    "cells.spectral_energy.velx_3.bin",
                    "cells.spectral_energy.velx_4.bin",
                    "cells.spectral_energy.velx_5.bin",
                    "cells.spectral_energy.velx_6.bin",
                    "cells.spectral_energy.velx_7.bin"
                ],
                "type": "float"
            },
            {
                "variable": "vely",
                "scale_decomposition": [
                    "0",
                    "1",
                    "2",
                    "3",
                    "4",
                    "5",
                    "6",
                    "7"
                ],
                "files": [
                    "cells.spectral_energy.vely_0.bin",
                    "cells.spectral_energy.vely_1.bin",
                    "cells.spectral_energy.vely_2.bin",
                    "cells.spectral_energy.vely_3.bin",
                    "cells.spectral_energy.vely_4.bin",
                    "cells.spectral_energy.vely_5.bin",
                    "cells.spectral_energy.vely_6.bin",
                    "cells.spectral_energy.vely_7.bin"
                ],
                "type": "float"
            },
            {
                "variable": "velz",
                "scale_decomposition": [
                    "0",
                    "1",
                    "2",
                    "3",
                    "4",
                    "5",
                    "6",
                    "7"
                ],
                "files": [
                    "cells.spectral_energy.velz_0.bin",
                    "cells.spectral_energy.velz_1.bin",
                    "cells.spectral_energy.velz_2.bin",
                    "cells.spectral_energy.velz_3.bin",
                    "cells.spectral_energy.velz_4.bin",
                    "cells.spectral_energy.velz_5.bin",
                    "cells.spectral_energy.velz_6.bin",
                    "cells.spectral_energy.velz_7.bin"
                ],
                "type": "float"
            }
        ],
        "count": 10327
    }
}