# Blender 4.0.2
# www.blender.org
mtllib cone.mtl
o Cone
v 0.000000 -0.500000 -0.408714
v 0.079736 -0.500000 -0.400860
v 0.156408 -0.500000 -0.377602
v 0.227069 -0.500000 -0.339833
v 0.289004 -0.500000 -0.289004
v 0.339833 -0.500000 -0.227069
v 0.377602 -0.500000 -0.156408
v 0.400860 -0.500000 -0.079736
v 0.408714 -0.500000 0.000000
v 0.400860 -0.500000 0.079736
v 0.377602 -0.500000 0.156408
v 0.339833 -0.500000 0.227069
v 0.289004 -0.500000 0.289004
v 0.227069 -0.500000 0.339833
v 0.156408 -0.500000 0.377602
v 0.079736 -0.500000 0.400860
v 0.000000 -0.500000 0.408714
v -0.079736 -0.500000 0.400860
v -0.156408 -0.500000 0.377602
v -0.227069 -0.500000 0.339833
v -0.289004 -0.500000 0.289004
v -0.339833 -0.500000 0.227069
v -0.377602 -0.500000 0.156408
v -0.400860 -0.500000 0.079736
v -0.408714 -0.500000 0.000000
v -0.400860 -0.500000 -0.079736
v -0.377602 -0.500000 -0.156408
v -0.339833 -0.500000 -0.227069
v -0.289004 -0.500000 -0.289004
v -0.227069 -0.500000 -0.339833
v -0.156408 -0.500000 -0.377602
v -0.079736 -0.500000 -0.400860
v 0.000000 0.500000 0.000000
vn -0.0000 -0.4299 -0.9029
vn -0.0000 1.0000 -0.0000
vn 0.1761 -0.4299 -0.8855
vn 0.3455 -0.4299 -0.8342
vn 0.5016 -0.4299 -0.7507
vn 0.6384 -0.4299 -0.6384
vn 0.7507 -0.4299 -0.5016
vn 0.8342 -0.4299 -0.3455
vn 0.8855 -0.4299 -0.1761
vn 0.9029 -0.4299 -0.0000
vn 0.8855 -0.4299 0.1761
vn 0.8342 -0.4299 0.3455
vn 0.7507 -0.4299 0.5016
vn 0.6384 -0.4299 0.6384
vn 0.5016 -0.4299 0.7507
vn 0.3455 -0.4299 0.8342
vn 0.1761 -0.4299 0.8855
vn -0.0000 -0.4299 0.9029
vn -0.1761 -0.4299 0.8855
vn -0.3455 -0.4299 0.8342
vn -0.5016 -0.4299 0.7507
vn -0.6384 -0.4299 0.6384
vn -0.7507 -0.4299 0.5016
vn -0.8342 -0.4299 0.3455
vn -0.8855 -0.4299 0.1761
vn -0.9029 -0.4299 -0.0000
vn -0.8855 -0.4299 -0.1761
vn -0.8342 -0.4299 -0.3455
vn -0.7507 -0.4299 -0.5016
vn -0.6384 -0.4299 -0.6384
vn -0.5016 -0.4299 -0.7507
vn -0.3455 -0.4299 -0.8342
vn -0.1761 -0.4299 -0.8855
vt 0.250000 0.490000
vt 0.250000 0.250000
vt 0.296822 0.485388
vt 0.341844 0.471731
vt 0.383337 0.449553
vt 0.419706 0.419706
vt 0.449553 0.383337
vt 0.471731 0.341844
vt 0.485388 0.296822
vt 0.490000 0.250000
vt 0.485388 0.203178
vt 0.471731 0.158156
vt 0.449553 0.116663
vt 0.419706 0.080294
vt 0.383337 0.050447
vt 0.341844 0.028269
vt 0.296822 0.014612
vt 0.250000 0.010000
vt 0.203178 0.014612
vt 0.158156 0.028269
vt 0.116663 0.050447
vt 0.080294 0.080294
vt 0.050447 0.116663
vt 0.028269 0.158156
vt 0.014612 0.203178
vt 0.010000 0.250000
vt 0.014612 0.296822
vt 0.028269 0.341844
vt 0.050447 0.383337
vt 0.080294 0.419706
vt 0.116663 0.449553
vt 0.158156 0.471731
vt 0.796822 0.014612
vt 0.514612 0.203178
vt 0.703178 0.485388
vt 0.203178 0.485388
vt 0.750000 0.490000
vt 0.796822 0.485388
vt 0.841844 0.471731
vt 0.883337 0.449553
vt 0.919706 0.419706
vt 0.949553 0.383337
vt 0.971731 0.341844
vt 0.985388 0.296822
vt 0.990000 0.250000
vt 0.985388 0.203178
vt 0.971731 0.158156
vt 0.949553 0.116663
vt 0.919706 0.080294
vt 0.883337 0.050447
vt 0.841844 0.028269
vt 0.750000 0.010000
vt 0.703178 0.014612
vt 0.658156 0.028269
vt 0.616663 0.050447
vt 0.580294 0.080294
vt 0.550447 0.116663
vt 0.528269 0.158156
vt 0.510000 0.250000
vt 0.514612 0.296822
vt 0.528269 0.341844
vt 0.550447 0.383337
vt 0.580294 0.419706
vt 0.616663 0.449553
vt 0.658156 0.471731
s 1
f 1/1/1 33/2/2 2/3/3
f 2/3/3 33/2/2 3/4/4
f 3/4/4 33/2/2 4/5/5
f 4/5/5 33/2/2 5/6/6
f 5/6/6 33/2/2 6/7/7
f 6/7/7 33/2/2 7/8/8
f 7/8/8 33/2/2 8/9/9
f 8/9/9 33/2/2 9/10/10
f 9/10/10 33/2/2 10/11/11
f 10/11/11 33/2/2 11/12/12
f 11/12/12 33/2/2 12/13/13
f 12/13/13 33/2/2 13/14/14
f 13/14/14 33/2/2 14/15/15
f 14/15/15 33/2/2 15/16/16
f 15/16/16 33/2/2 16/17/17
f 16/17/17 33/2/2 17/18/18
f 17/18/18 33/2/2 18/19/19
f 18/19/19 33/2/2 19/20/20
f 19/20/20 33/2/2 20/21/21
f 20/21/21 33/2/2 21/22/22
f 21/22/22 33/2/2 22/23/23
f 22/23/23 33/2/2 23/24/24
f 23/24/24 33/2/2 24/25/25
f 24/25/25 33/2/2 25/26/26
f 25/26/26 33/2/2 26/27/27
f 26/27/27 33/2/2 27/28/28
f 27/28/28 33/2/2 28/29/29
f 28/29/29 33/2/2 29/30/30
f 29/30/30 33/2/2 30/31/31
f 30/31/31 33/2/2 31/32/32
f 16/33/17 24/34/25 32/35/33
f 31/32/32 33/2/2 32/36/33
f 32/36/33 33/2/2 1/1/1
f 32/35/33 1/37/1 2/38/3
f 2/38/3 3/39/4 4/40/5
f 4/40/5 5/41/6 6/42/7
f 6/42/7 7/43/8 8/44/9
f 8/44/9 9/45/10 10/46/11
f 10/46/11 11/47/12 12/48/13
f 12/48/13 13/49/14 14/50/15
f 14/50/15 15/51/16 16/33/17
f 16/33/17 17/52/18 18/53/19
f 18/53/19 19/54/20 20/55/21
f 20/55/21 21/56/22 22/57/23
f 22/57/23 23/58/24 24/34/25
f 24/34/25 25/59/26 26/60/27
f 26/60/27 27/61/28 28/62/29
f 28/62/29 29/63/30 30/64/31
f 30/64/31 31/65/32 32/35/33
f 32/35/33 2/38/3 4/40/5
f 4/40/5 6/42/7 8/44/9
f 8/44/9 10/46/11 12/48/13
f 12/48/13 14/50/15 16/33/17
f 16/33/17 18/53/19 20/55/21
f 20/55/21 22/57/23 24/34/25
f 24/34/25 26/60/27 28/62/29
f 28/62/29 30/64/31 32/35/33
f 32/35/33 4/40/5 8/44/9
f 8/44/9 12/48/13 16/33/17
f 16/33/17 20/55/21 24/34/25
f 24/34/25 28/62/29 32/35/33
f 32/35/33 8/44/9 16/33/17
