(0.0, 0.0, 1.0, 1.0)
(0.00784313725490196, 0.0, 0.9921568627450981, 1.0)
(0.01568627450980392, 0.0, 0.9843137254901961, 1.0)
(0.023529411764705882, 0.0, 0.9764705882352941, 1.0)
(0.03137254901960784, 0.0, 0.9686274509803922, 1.0)
(0.0392156862745098, 0.0, 0.9607843137254902, 1.0)
(0.047058823529411764, 0.0, 0.9529411764705882, 1.0)
(0.054901960784313725, 0.0, 0.9450980392156862, 1.0)
(0.06274509803921569, 0.0, 0.9372549019607843, 1.0)
(0.07058823529411765, 0.0, 0.9294117647058824, 1.0)
(0.0784313725490196, 0.0, 0.9215686274509804, 1.0)
(0.08627450980392157, 0.0, 0.9137254901960784, 1.0)
(0.09411764705882353, 0.0, 0.9058823529411765, 1.0)
(0.10196078431372549, 0.0, 0.8980392156862745, 1.0)
(0.10980392156862745, 0.0, 0.8901960784313725, 1.0)
(0.11764705882352941, 0.0, 0.8823529411764706, 1.0)
(0.12549019607843137, 0.0, 0.8745098039215686, 1.0)
(0.13333333333333333, 0.0, 0.8666666666666667, 1.0)
(0.1411764705882353, 0.0, 0.8588235294117648, 1.0)
(0.14901960784313725, 0.0, 0.8509803921568627, 1.0)
(0.1568627450980392, 0.0, 0.8431372549019608, 1.0)
(0.16470588235294117, 0.0, 0.8352941176470589, 1.0)
(0.17254901960784313, 0.0, 0.8274509803921568, 1.0)
(0.1803921568627451, 0.0, 0.8196078431372549, 1.0)
(0.18823529411764706, 0.0, 0.8117647058823529, 1.0)
(0.19607843137254902, 0.0, 0.803921568627451, 1.0)
(0.20392156862745098, 0.0, 0.7960784313725491, 1.0)
(0.21176470588235294, 0.0, 0.788235294117647, 1.0)
(0.2196078431372549, 0.0, 0.7803921568627451, 1.0)
(0.22745098039215686, 0.0, 0.7725490196078432, 1.0)
(0.23529411764705882, 0.0, 0.7647058823529411, 1.0)
(0.24313725490196078, 0.0, 0.7568627450980392, 1.0)
(0.25098039215686274, 0.0, 0.7490196078431373, 1.0)
(0.2588235294117647, 0.0, 0.7411764705882353, 1.0)
(0.26666666666666666, 0.0, 0.7333333333333334, 1.0)
(0.27450980392156865, 0.0, 0.7254901960784313, 1.0)
(0.2823529411764706, 0.0, 0.7176470588235294, 1.0)
(0.2901960784313725, 0.0, 0.7098039215686275, 1.0)
(0.2980392156862745, 0.0, 0.7019607843137254, 1.0)
(0.3058823529411765, 0.0, 0.6941176470588235, 1.0)
(0.3137254901960784, 0.0, 0.6862745098039216, 1.0)
(0.32156862745098036, 0.0, 0.6784313725490196, 1.0)
(0.32941176470588235, 0.0, 0.6705882352941177, 1.0)
(0.33725490196078434, 0.0, 0.6627450980392157, 1.0)
(0.34509803921568627, 0.0, 0.6549019607843137, 1.0)
(0.3529411764705882, 0.0, 0.6470588235294118, 1.0)
(0.3607843137254902, 0.0, 0.6392156862745098, 1.0)
(0.3686274509803922, 0.0, 0.6313725490196078, 1.0)
(0.3764705882352941, 0.0, 0.6235294117647059, 1.0)
(0.38431372549019605, 0.0, 0.615686274509804, 1.0)
(0.39215686274509803, 0.0, 0.607843137254902, 1.0)
(0.4, 0.0, 0.6, 1.0)
(0.40784313725490196, 0.0, 0.592156862745098, 1.0)
(0.4156862745098039, 0.0, 0.5843137254901961, 1.0)
(0.4235294117647059, 0.0, 0.5764705882352941, 1.0)
(0.43137254901960786, 0.0, 0.5686274509803921, 1.0)
(0.4392156862745098, 0.0, 0.5607843137254902, 1.0)
(0.44705882352941173, 0.0, 0.5529411764705883, 1.0)
(0.4549019607843137, 0.0, 0.5450980392156863, 1.0)
(0.4627450980392157, 0.0, 0.5372549019607843, 1.0)
(0.47058823529411764, 0.0, 0.5294117647058824, 1.0)
(0.4784313725490196, 0.0, 0.5215686274509804, 1.0)
(0.48627450980392156, 0.0, 0.5137254901960784, 1.0)
(0.49411764705882355, 0.0, 0.5058823529411764, 1.0)
(0.5019607843137255, 0.0, 0.4980392156862745, 1.0)
(0.5098039215686274, 0.0, 0.4901960784313726, 1.0)
(0.5176470588235293, 0.0, 0.48235294117647065, 1.0)
(0.5254901960784314, 0.0, 0.4745098039215686, 1.0)
(0.5333333333333333, 0.0, 0.4666666666666667, 1.0)
(0.5411764705882353, 0.0, 0.45882352941176474, 1.0)
(0.5490196078431373, 0.0, 0.4509803921568627, 1.0)
(0.5568627450980392, 0.0, 0.44313725490196076, 1.0)
(0.5647058823529412, 0.0, 0.43529411764705883, 1.0)
(0.5725490196078431, 0.0, 0.4274509803921569, 1.0)
(0.580392156862745, 0.0, 0.41960784313725497, 1.0)
(0.5882352941176471, 0.0, 0.4117647058823529, 1.0)
(0.596078431372549, 0.0, 0.403921568627451, 1.0)
(0.6039215686274509, 0.0, 0.39607843137254906, 1.0)
(0.611764705882353, 0.0, 0.388235294117647, 1.0)
(0.6196078431372549, 0.0, 0.3803921568627451, 1.0)
(0.6274509803921569, 0.0, 0.37254901960784315, 1.0)
(0.6352941176470588, 0.0, 0.3647058823529412, 1.0)
(0.6431372549019607, 0.0, 0.3568627450980393, 1.0)
(0.6509803921568628, 0.0, 0.34901960784313724, 1.0)
(0.6588235294117647, 0.0, 0.3411764705882353, 1.0)
(0.6666666666666666, 0.0, 0.33333333333333337, 1.0)
(0.6745098039215687, 0.0, 0.3254901960784313, 1.0)
(0.6823529411764706, 0.0, 0.3176470588235294, 1.0)
(0.6901960784313725, 0.0, 0.30980392156862746, 1.0)
(0.6980392156862745, 0.0, 0.3019607843137255, 1.0)
(0.7058823529411764, 0.0, 0.2941176470588236, 1.0)
(0.7137254901960784, 0.0, 0.28627450980392155, 1.0)
(0.7215686274509804, 0.0, 0.2784313725490196, 1.0)
(0.7294117647058823, 0.0, 0.2705882352941177, 1.0)
(0.7372549019607844, 0.0, 0.26274509803921564, 1.0)
(0.7450980392156863, 0.0, 0.2549019607843137, 1.0)
(0.7529411764705882, 0.0, 0.24705882352941178, 1.0)
(0.7607843137254902, 0.0, 0.23921568627450984, 1.0)
(0.7686274509803921, 0.0, 0.2313725490196079, 1.0)
(0.7764705882352941, 0.0, 0.22352941176470587, 1.0)
(0.7843137254901961, 0.0, 0.21568627450980393, 1.0)
(0.792156862745098, 0.0, 0.207843137254902, 1.0)
(0.8, 0.0, 0.19999999999999996, 1.0)
(0.807843137254902, 0.0, 0.19215686274509802, 1.0)
(0.8156862745098039, 0.0, 0.1843137254901961, 1.0)
(0.8235294117647058, 0.0, 0.17647058823529416, 1.0)
(0.8313725490196078, 0.0, 0.16862745098039222, 1.0)
(0.8392156862745098, 0.0, 0.16078431372549018, 1.0)
(0.8470588235294118, 0.0, 0.15294117647058825, 1.0)
(0.8549019607843137, 0.0, 0.14509803921568631, 1.0)
(0.8627450980392157, 0.0, 0.13725490196078427, 1.0)
(0.8705882352941177, 0.0, 0.12941176470588234, 1.0)
(0.8784313725490196, 0.0, 0.1215686274509804, 1.0)
(0.8862745098039215, 0.0, 0.11372549019607847, 1.0)
(0.8941176470588235, 0.0, 0.10588235294117654, 1.0)
(0.9019607843137255, 0.0, 0.0980392156862745, 1.0)
(0.9098039215686274, 0.0, 0.09019607843137256, 1.0)
(0.9176470588235294, 0.0, 0.08235294117647063, 1.0)
(0.9254901960784314, 0.0, 0.07450980392156858, 1.0)
(0.9333333333333333, 0.0, 0.06666666666666665, 1.0)
(0.9411764705882353, 0.0, 0.05882352941176472, 1.0)
(0.9490196078431372, 0.0, 0.050980392156862786, 1.0)
(0.9568627450980391, 0.0, 0.04313725490196085, 1.0)
(0.9647058823529412, 0.0, 0.03529411764705881, 1.0)
(0.9725490196078431, 0.0, 0.027450980392156876, 1.0)
(0.9803921568627451, 0.0, 0.019607843137254943, 1.0)
(0.9882352941176471, 0.0, 0.0117647058823529, 1.0)
(0.996078431372549, 0.0, 0.0039215686274509665, 1.0)
(0.996078431372549, 0.00392156862745098, 0.0, 1.0)
(0.9882352941176471, 0.011764705882352941, 0.0, 1.0)
(0.9803921568627451, 0.0196078431372549, 0.0, 1.0)
(0.9725490196078431, 0.027450980392156862, 0.0, 1.0)
(0.9647058823529414, 0.0352941176470586, 0.0, 1.0)
(0.9568627450980393, 0.043137254901960784, 0.0, 1.0)
(0.9490196078431372, 0.050980392156862744, 0.0, 1.0)
(0.9411764705882353, 0.058823529411764705, 0.0, 1.0)
(0.9333333333333333, 0.06666666666666667, 0.0, 1.0)
(0.9254901960784314, 0.07450980392156863, 0.0, 1.0)
(0.9176470588235294, 0.08235294117647059, 0.0, 1.0)
(0.9098039215686274, 0.09019607843137255, 0.0, 1.0)
(0.9019607843137255, 0.09803921568627451, 0.0, 1.0)
(0.8941176470588236, 0.10588235294117647, 0.0, 1.0)
(0.8862745098039215, 0.11372549019607843, 0.0, 1.0)
(0.8784313725490196, 0.12156862745098039, 0.0, 1.0)
(0.8705882352941177, 0.12941176470588237, 0.0, 1.0)
(0.8627450980392157, 0.13725490196078433, 0.0, 1.0)
(0.8549019607843137, 0.1450980392156863, 0.0, 1.0)
(0.8470588235294118, 0.15294117647058825, 0.0, 1.0)
(0.83921568627451, 0.16078431372548999, 0.0, 1.0)
(0.8313725490196078, 0.16862745098039217, 0.0, 1.0)
(0.8235294117647058, 0.17647058823529413, 0.0, 1.0)
(0.8156862745098039, 0.1843137254901961, 0.0, 1.0)
(0.807843137254902, 0.19215686274509805, 0.0, 1.0)
(0.8, 0.2, 0.0, 1.0)
(0.792156862745098, 0.20784313725490197, 0.0, 1.0)
(0.7843137254901961, 0.21568627450980393, 0.0, 1.0)
(0.7764705882352941, 0.2235294117647059, 0.0, 1.0)
(0.7686274509803921, 0.23137254901960785, 0.0, 1.0)
(0.7607843137254902, 0.23921568627450981, 0.0, 1.0)
(0.7529411764705882, 0.24705882352941178, 0.0, 1.0)
(0.7450980392156863, 0.2549019607843137, 0.0, 1.0)
(0.7372549019607844, 0.2627450980392157, 0.0, 1.0)
(0.7294117647058824, 0.27058823529411763, 0.0, 1.0)
(0.7215686274509804, 0.2784313725490196, 0.0, 1.0)
(0.7137254901960787, 0.28627450980392133, 0.0, 1.0)
(0.7058823529411764, 0.29411764705882354, 0.0, 1.0)
(0.6980392156862745, 0.30196078431372547, 0.0, 1.0)
(0.6901960784313725, 0.30980392156862746, 0.0, 1.0)
(0.6823529411764706, 0.3176470588235294, 0.0, 1.0)
(0.6745098039215687, 0.3254901960784314, 0.0, 1.0)
(0.6666666666666667, 0.3333333333333333, 0.0, 1.0)
(0.6588235294117647, 0.3411764705882353, 0.0, 1.0)
(0.6509803921568628, 0.34901960784313724, 0.0, 1.0)
(0.6431372549019607, 0.3568627450980392, 0.0, 1.0)
(0.6352941176470588, 0.36470588235294116, 0.0, 1.0)
(0.6274509803921569, 0.37254901960784315, 0.0, 1.0)
(0.6196078431372549, 0.3803921568627451, 0.0, 1.0)
(0.611764705882353, 0.38823529411764707, 0.0, 1.0)
(0.603921568627451, 0.396078431372549, 0.0, 1.0)
(0.596078431372549, 0.403921568627451, 0.0, 1.0)
(0.5882352941176473, 0.4117647058823527, 0.0, 1.0)
(0.580392156862745, 0.4196078431372549, 0.0, 1.0)
(0.5725490196078431, 0.42745098039215684, 0.0, 1.0)
(0.5647058823529412, 0.43529411764705883, 0.0, 1.0)
(0.5568627450980392, 0.44313725490196076, 0.0, 1.0)
(0.5490196078431373, 0.45098039215686275, 0.0, 1.0)
(0.5411764705882354, 0.4588235294117647, 0.0, 1.0)
(0.5333333333333333, 0.4666666666666667, 0.0, 1.0)
(0.5254901960784314, 0.4745098039215686, 0.0, 1.0)
(0.5176470588235293, 0.4823529411764706, 0.0, 1.0)
(0.5098039215686274, 0.49019607843137253, 0.0, 1.0)
(0.5019607843137255, 0.4980392156862745, 0.0, 1.0)
(0.49411764705882355, 0.5058823529411764, 0.0, 1.0)
(0.4862745098039216, 0.5137254901960784, 0.0, 1.0)
(0.4784313725490196, 0.5215686274509804, 0.0, 1.0)
(0.47058823529411764, 0.5294117647058824, 0.0, 1.0)
(0.46274509803921593, 0.5372549019607841, 0.0, 1.0)
(0.4549019607843138, 0.5450980392156862, 0.0, 1.0)
(0.44705882352941173, 0.5529411764705883, 0.0, 1.0)
(0.4392156862745098, 0.5607843137254902, 0.0, 1.0)
(0.43137254901960786, 0.5686274509803921, 0.0, 1.0)
(0.42352941176470593, 0.5764705882352941, 0.0, 1.0)
(0.4156862745098039, 0.5843137254901961, 0.0, 1.0)
(0.40784313725490196, 0.592156862745098, 0.0, 1.0)
(0.4, 0.6, 0.0, 1.0)
(0.3921568627450981, 0.6078431372549019, 0.0, 1.0)
(0.38431372549019605, 0.615686274509804, 0.0, 1.0)
(0.3764705882352941, 0.6235294117647059, 0.0, 1.0)
(0.3686274509803922, 0.6313725490196078, 0.0, 1.0)
(0.36078431372549025, 0.6392156862745098, 0.0, 1.0)
(0.3529411764705882, 0.6470588235294118, 0.0, 1.0)
(0.34509803921568627, 0.6549019607843137, 0.0, 1.0)
(0.33725490196078456, 0.6627450980392154, 0.0, 1.0)
(0.3294117647058824, 0.6705882352941176, 0.0, 1.0)
(0.32156862745098036, 0.6784313725490196, 0.0, 1.0)
(0.3137254901960784, 0.6862745098039216, 0.0, 1.0)
(0.3058823529411765, 0.6941176470588235, 0.0, 1.0)
(0.29803921568627456, 0.7019607843137254, 0.0, 1.0)
(0.2901960784313725, 0.7098039215686275, 0.0, 1.0)
(0.2823529411764706, 0.7176470588235294, 0.0, 1.0)
(0.27450980392156865, 0.7254901960784313, 0.0, 1.0)
(0.2666666666666667, 0.7333333333333333, 0.0, 1.0)
(0.2588235294117647, 0.7411764705882353, 0.0, 1.0)
(0.25098039215686274, 0.7490196078431373, 0.0, 1.0)
(0.2431372549019608, 0.7568627450980392, 0.0, 1.0)
(0.23529411764705888, 0.7647058823529411, 0.0, 1.0)
(0.22745098039215683, 0.7725490196078432, 0.0, 1.0)
(0.2196078431372549, 0.7803921568627451, 0.0, 1.0)
(0.2117647058823532, 0.7882352941176468, 0.0, 1.0)
(0.20392156862745103, 0.796078431372549, 0.0, 1.0)
(0.196078431372549, 0.803921568627451, 0.0, 1.0)
(0.18823529411764706, 0.8117647058823529, 0.0, 1.0)
(0.18039215686274512, 0.8196078431372549, 0.0, 1.0)
(0.1725490196078432, 0.8274509803921568, 0.0, 1.0)
(0.16470588235294115, 0.8352941176470589, 0.0, 1.0)
(0.1568627450980392, 0.8431372549019608, 0.0, 1.0)
(0.14901960784313728, 0.8509803921568627, 0.0, 1.0)
(0.14117647058823535, 0.8588235294117647, 0.0, 1.0)
(0.1333333333333333, 0.8666666666666667, 0.0, 1.0)
(0.12549019607843137, 0.8745098039215686, 0.0, 1.0)
(0.11764705882352944, 0.8823529411764706, 0.0, 1.0)
(0.1098039215686275, 0.8901960784313725, 0.0, 1.0)
(0.10196078431372546, 0.8980392156862745, 0.0, 1.0)
(0.09411764705882353, 0.9058823529411765, 0.0, 1.0)
(0.08627450980392182, 0.9137254901960782, 0.0, 1.0)
(0.07843137254901966, 0.9215686274509803, 0.0, 1.0)
(0.07058823529411762, 0.9294117647058824, 0.0, 1.0)
(0.06274509803921569, 0.9372549019607843, 0.0, 1.0)
(0.05490196078431375, 0.9450980392156862, 0.0, 1.0)
(0.04705882352941182, 0.9529411764705882, 0.0, 1.0)
(0.039215686274509776, 0.9607843137254902, 0.0, 1.0)
(0.03137254901960784, 0.9686274509803922, 0.0, 1.0)
(0.02352941176470591, 0.9764705882352941, 0.0, 1.0)
(0.015686274509803977, 0.984313725490196, 0.0, 1.0)
(0.007843137254901933, 0.9921568627450981, 0.0, 1.0)
(0.0, 1.0, 0.0, 1.0)
