(0.0, 0.0, 0.0, 1.0)
(0.0716922966627236, 0.00392156862745098, 0.00784313725490196, 1.0)
(0.1433845933254472, 0.00784313725490196, 0.01568627450980392, 1.0)
(0.2150768899881708, 0.011764705882352941, 0.023529411764705882, 1.0)
(0.2867691866508944, 0.01568627450980392, 0.03137254901960784, 1.0)
(0.358461483313618, 0.0196078431372549, 0.0392156862745098, 1.0)
(0.4301537799763416, 0.023529411764705882, 0.047058823529411764, 1.0)
(0.5018460766390651, 0.027450980392156862, 0.054901960784313725, 1.0)
(0.5735383733017888, 0.03137254901960784, 0.06274509803921569, 1.0)
(0.6452306699645124, 0.03529411764705882, 0.07058823529411765, 1.0)
(0.716922966627236, 0.0392156862745098, 0.0784313725490196, 1.0)
(0.7886152632899596, 0.043137254901960784, 0.08627450980392157, 1.0)
(0.8603075599526832, 0.047058823529411764, 0.09411764705882353, 1.0)
(0.9319998566154067, 0.050980392156862744, 0.10196078431372549, 1.0)
(0.9989938154473259, 0.054901960784313725, 0.10980392156862745, 1.0)
(0.9794562513177314, 0.058823529411764705, 0.11764705882352941, 1.0)
(0.9599186871881369, 0.06274509803921569, 0.12549019607843137, 1.0)
(0.9403811230585424, 0.06666666666666667, 0.13333333333333333, 1.0)
(0.9208435589289479, 0.07058823529411765, 0.1411764705882353, 1.0)
(0.9013059947993535, 0.07450980392156863, 0.14901960784313725, 1.0)
(0.881768430669759, 0.0784313725490196, 0.1568627450980392, 1.0)
(0.8622308665401645, 0.08235294117647059, 0.16470588235294117, 1.0)
(0.8426933024105699, 0.08627450980392157, 0.17254901960784313, 1.0)
(0.8231557382809755, 0.09019607843137255, 0.1803921568627451, 1.0)
(0.803618174151381, 0.09411764705882353, 0.18823529411764706, 1.0)
(0.7840806100217865, 0.09803921568627451, 0.19607843137254902, 1.0)
(0.764543045892192, 0.10196078431372549, 0.20392156862745098, 1.0)
(0.7450054817625975, 0.10588235294117647, 0.21176470588235294, 1.0)
(0.725467917633003, 0.10980392156862745, 0.2196078431372549, 1.0)
(0.7059303535034085, 0.11372549019607843, 0.22745098039215686, 1.0)
(0.6863927893738141, 0.11764705882352941, 0.23529411764705882, 1.0)
(0.6668552252442196, 0.12156862745098039, 0.24313725490196078, 1.0)
(0.6473176611146252, 0.12549019607843137, 0.25098039215686274, 1.0)
(0.6277800969850307, 0.12941176470588234, 0.2588235294117647, 1.0)
(0.6082425328554361, 0.13333333333333333, 0.26666666666666666, 1.0)
(0.5887049687258417, 0.13725490196078433, 0.27450980392156865, 1.0)
(0.5691674045962472, 0.1411764705882353, 0.2823529411764706, 1.0)
(0.5496298404666529, 0.14509803921568626, 0.2901960784313725, 1.0)
(0.5300922763370581, 0.14901960784313725, 0.2980392156862745, 1.0)
(0.5105547122074636, 0.15294117647058825, 0.3058823529411765, 1.0)
(0.4910171480778691, 0.1568627450980392, 0.3137254901960784, 1.0)
(0.4714795839482748, 0.16078431372549018, 0.32156862745098036, 1.0)
(0.4519420198186802, 0.16470588235294117, 0.32941176470588235, 1.0)
(0.4324044556890857, 0.16862745098039217, 0.33725490196078434, 1.0)
(0.4128668915594912, 0.17254901960784313, 0.34509803921568627, 1.0)
(0.3933293274298969, 0.1764705882352941, 0.3529411764705882, 1.0)
(0.3737917633003023, 0.1803921568627451, 0.3607843137254902, 1.0)
(0.35425419917070766, 0.1843137254901961, 0.3686274509803922, 1.0)
(0.33471663504111326, 0.18823529411764706, 0.3764705882352941, 1.0)
(0.3151790709115191, 0.19215686274509802, 0.38431372549019605, 1.0)
(0.29564150678192413, 0.19607843137254902, 0.39215686274509803, 1.0)
(0.27610394265232974, 0.2, 0.4, 1.0)
(0.25656637852273523, 0.20392156862745098, 0.40784313725490196, 1.0)
(0.23702881439314105, 0.20784313725490194, 0.4156862745098039, 1.0)
(0.2174912502635462, 0.21176470588235294, 0.4235294117647059, 1.0)
(0.1979536861339518, 0.21568627450980393, 0.43137254901960786, 1.0)
(0.1784161220043573, 0.2196078431372549, 0.4392156862745098, 1.0)
(0.15887855787476313, 0.22352941176470587, 0.44705882352941173, 1.0)
(0.13934099374516828, 0.22745098039215686, 0.4549019607843137, 1.0)
(0.11980342961557389, 0.23137254901960785, 0.4627450980392157, 1.0)
(0.10026586548597938, 0.23529411764705882, 0.47058823529411764, 1.0)
(0.08072830135638509, 0.2392156862745098, 0.4784313725490196, 1.0)
(0.06119073722679036, 0.24313725490196078, 0.48627450980392156, 1.0)
(0.04165317309719585, 0.24705882352941178, 0.49411764705882355, 1.0)
(0.25098039215686274, 0.25098039215686274, 0.5019607843137255, 1.0)
(0.2549019607843137, 0.2549019607843137, 0.5098039215686274, 1.0)
(0.2588235294117647, 0.2588235294117647, 0.5176470588235293, 1.0)
(0.2627450980392157, 0.2627450980392157, 0.5254901960784314, 1.0)
(0.26666666666666666, 0.26666666666666666, 0.5333333333333333, 1.0)
(0.27058823529411763, 0.27058823529411763, 0.5411764705882353, 1.0)
(0.27450980392156865, 0.27450980392156865, 0.5490196078431373, 1.0)
(0.2784313725490196, 0.2784313725490196, 0.5568627450980392, 1.0)
(0.2823529411764706, 0.2823529411764706, 0.5647058823529412, 1.0)
(0.28627450980392155, 0.28627450980392155, 0.5725490196078431, 1.0)
(0.2901960784313725, 0.2901960784313725, 0.580392156862745, 1.0)
(0.29411764705882354, 0.29411764705882354, 0.5882352941176471, 1.0)
(0.2980392156862745, 0.2980392156862745, 0.596078431372549, 1.0)
(0.30196078431372547, 0.30196078431372547, 0.6039215686274509, 1.0)
(0.3058823529411765, 0.3058823529411765, 0.611764705882353, 1.0)
(0.30980392156862746, 0.30980392156862746, 0.6196078431372549, 1.0)
(0.3137254901960784, 0.3137254901960784, 0.6274509803921569, 1.0)
(0.3176470588235294, 0.3176470588235294, 0.6352941176470588, 1.0)
(0.32156862745098036, 0.32156862745098036, 0.6431372549019607, 1.0)
(0.3254901960784314, 0.3254901960784314, 0.6509803921568628, 1.0)
(0.32941176470588235, 0.32941176470588235, 0.6588235294117647, 1.0)
(0.3333333333333333, 0.3333333333333333, 0.6666666666666666, 1.0)
(0.33725490196078434, 0.33725490196078434, 0.6745098039215687, 1.0)
(0.3411764705882353, 0.3411764705882353, 0.6823529411764706, 1.0)
(0.34509803921568627, 0.34509803921568627, 0.6901960784313725, 1.0)
(0.34901960784313724, 0.34901960784313724, 0.6980392156862745, 1.0)
(0.3529411764705882, 0.3529411764705882, 0.7058823529411764, 1.0)
(0.3568627450980392, 0.3568627450980392, 0.7137254901960784, 1.0)
(0.3607843137254902, 0.3607843137254902, 0.7215686274509804, 1.0)
(0.3647058823529412, 0.36470588235294116, 0.7294117647058823, 1.0)
(0.3686274509803922, 0.3686274509803922, 0.7372549019607844, 1.0)
(0.37254901960784315, 0.37254901960784315, 0.7450980392156863, 1.0)
(0.3764705882352941, 0.3764705882352941, 0.7529411764705882, 1.0)
(0.3803921568627451, 0.3803921568627451, 0.7607843137254902, 1.0)
(0.38431372549019605, 0.38431372549019605, 0.7686274509803921, 1.0)
(0.38823529411764707, 0.38823529411764707, 0.7764705882352941, 1.0)
(0.39215686274509803, 0.39215686274509803, 0.7843137254901961, 1.0)
(0.39607843137254906, 0.396078431372549, 0.792156862745098, 1.0)
(0.4, 0.4, 0.8, 1.0)
(0.403921568627451, 0.403921568627451, 0.807843137254902, 1.0)
(0.40784313725490196, 0.40784313725490196, 0.8156862745098039, 1.0)
(0.4117647058823529, 0.4117647058823529, 0.8235294117647058, 1.0)
(0.4156862745098039, 0.4156862745098039, 0.8313725490196078, 1.0)
(0.4196078431372549, 0.4196078431372549, 0.8392156862745098, 1.0)
(0.4235294117647059, 0.4235294117647059, 0.8470588235294118, 1.0)
(0.42745098039215684, 0.42745098039215684, 0.8549019607843137, 1.0)
(0.43137254901960786, 0.43137254901960786, 0.8627450980392157, 1.0)
(0.43529411764705883, 0.43529411764705883, 0.8705882352941177, 1.0)
(0.4392156862745098, 0.4392156862745098, 0.8784313725490196, 1.0)
(0.44313725490196076, 0.44313725490196076, 0.8862745098039215, 1.0)
(0.4470588235294117, 0.44705882352941173, 0.8941176470588235, 1.0)
(0.45098039215686275, 0.45098039215686275, 0.9019607843137255, 1.0)
(0.4549019607843137, 0.4549019607843137, 0.9098039215686274, 1.0)
(0.45882352941176474, 0.4588235294117647, 0.9176470588235294, 1.0)
(0.4627450980392157, 0.4627450980392157, 0.9254901960784314, 1.0)
(0.4666666666666667, 0.4666666666666667, 0.9333333333333333, 1.0)
(0.47058823529411764, 0.47058823529411764, 0.9411764705882353, 1.0)
(0.4745098039215686, 0.4745098039215686, 0.9490196078431372, 1.0)
(0.4784313725490196, 0.4784313725490196, 0.9568627450980391, 1.0)
(0.4823529411764706, 0.4823529411764706, 0.9647058823529412, 1.0)
(0.48627450980392156, 0.48627450980392156, 0.9725490196078431, 1.0)
(0.49019607843137253, 0.49019607843137253, 0.9803921568627451, 1.0)
(0.49411764705882355, 0.49411764705882355, 0.9882352941176471, 1.0)
(0.4980392156862745, 0.4980392156862745, 0.996078431372549, 1.0)
(0.5019607843137255, 0.5019607843137255, 0.9916562369628703, 1.0)
(0.5058823529411764, 0.5058823529411764, 0.9749687108886107, 1.0)
(0.5098039215686274, 0.5098039215686274, 0.9582811848143513, 1.0)
(0.5137254901960784, 0.5137254901960784, 0.9415936587400917, 1.0)
(0.5176470588235293, 0.5176470588235293, 0.9249061326658328, 1.0)
(0.5215686274509803, 0.5215686274509804, 0.9082186065915727, 1.0)
(0.5254901960784314, 0.5254901960784314, 0.8915310805173133, 1.0)
(0.5294117647058824, 0.5294117647058824, 0.8748435544430537, 1.0)
(0.5333333333333333, 0.5333333333333333, 0.8581560283687943, 1.0)
(0.5372549019607844, 0.5372549019607843, 0.8414685022945347, 1.0)
(0.5411764705882354, 0.5411764705882353, 0.8247809762202754, 1.0)
(0.5450980392156863, 0.5450980392156862, 0.8080934501460157, 1.0)
(0.5490196078431373, 0.5490196078431373, 0.7914059240717564, 1.0)
(0.5529411764705883, 0.5529411764705883, 0.7747183979974968, 1.0)
(0.5568627450980392, 0.5568627450980392, 0.7580308719232374, 1.0)
(0.5607843137254902, 0.5607843137254902, 0.7413433458489778, 1.0)
(0.5647058823529412, 0.5647058823529412, 0.7246558197747184, 1.0)
(0.5686274509803921, 0.5686274509803921, 0.7079682937004588, 1.0)
(0.5725490196078431, 0.5725490196078431, 0.6912807676261994, 1.0)
(0.5764705882352941, 0.5764705882352941, 0.6745932415519398, 1.0)
(0.580392156862745, 0.580392156862745, 0.6579057154776808, 1.0)
(0.5843137254901961, 0.5843137254901961, 0.6412181894034208, 1.0)
(0.5882352941176471, 0.5882352941176471, 0.6245306633291614, 1.0)
(0.592156862745098, 0.592156862745098, 0.6078431372549018, 1.0)
(0.596078431372549, 0.596078431372549, 0.5911556111806424, 1.0)
(0.6, 0.6, 0.5744680851063828, 1.0)
(0.6039215686274509, 0.6039215686274509, 0.5577805590321234, 1.0)
(0.607843137254902, 0.6078431372549019, 0.5410930329578638, 1.0)
(0.611764705882353, 0.611764705882353, 0.5244055068836044, 1.0)
(0.615686274509804, 0.615686274509804, 0.5077179808093448, 1.0)
(0.6196078431372549, 0.6196078431372549, 0.49103045473508533, 1.0)
(0.6235294117647059, 0.6235294117647059, 0.47434292866082584, 1.0)
(0.6274509803921569, 0.6274509803921569, 0.45765540258656634, 1.0)
(0.6313725490196078, 0.6313725490196078, 0.44096787651230684, 1.0)
(0.6352941176470588, 0.6352941176470588, 0.42428035043804735, 1.0)
(0.6392156862745099, 0.6392156862745098, 0.40759282436378785, 1.0)
(0.6431372549019606, 0.6431372549019607, 0.3909052982895289, 1.0)
(0.6470588235294118, 0.6470588235294118, 0.37421777221526886, 1.0)
(0.6509803921568628, 0.6509803921568628, 0.35753024614100937, 1.0)
(0.6549019607843137, 0.6549019607843137, 0.34084272006674987, 1.0)
(0.6588235294117647, 0.6588235294117647, 0.3241551939924904, 1.0)
(0.6627450980392158, 0.6627450980392157, 0.3074676679182309, 1.0)
(0.6666666666666667, 0.6666666666666666, 0.2907801418439714, 1.0)
(0.6705882352941177, 0.6705882352941176, 0.2740926157697119, 1.0)
(0.6745098039215687, 0.6745098039215687, 0.2574050896954524, 1.0)
(0.6784313725490196, 0.6784313725490196, 0.2407175636211929, 1.0)
(0.6823529411764706, 0.6823529411764706, 0.2240300375469334, 1.0)
(0.6862745098039216, 0.6862745098039216, 0.2073425114726739, 1.0)
(0.6901960784313725, 0.6901960784313725, 0.1906549853984144, 1.0)
(0.6941176470588235, 0.6941176470588235, 0.17396745932415492, 1.0)
(0.6980392156862745, 0.6980392156862745, 0.15727993324989542, 1.0)
(0.7019607843137254, 0.7019607843137254, 0.14059240717563593, 1.0)
(0.7058823529411764, 0.7058823529411764, 0.12390488110137698, 1.0)
(0.7098039215686275, 0.7098039215686275, 0.10721735502711693, 1.0)
(0.7137254901960784, 0.7137254901960784, 0.09052982895285744, 1.0)
(0.7176470588235294, 0.7176470588235294, 0.07384230287859794, 1.0)
(0.7215686274509804, 0.7215686274509804, 0.05715477680433845, 1.0)
(0.7254901960784313, 0.7254901960784313, 0.04046725073007895, 1.0)
(0.7294117647058823, 0.7294117647058823, 0.023779724655819456, 1.0)
(0.7333333333333334, 0.7333333333333333, 0.007092198581559961, 1.0)
(0.7372549019607844, 0.7372549019607844, 0.008509064002959924, 1.0)
(0.7411764705882353, 0.7411764705882353, 0.023307436182020223, 1.0)
(0.7450980392156863, 0.7450980392156863, 0.038105808361080525, 1.0)
(0.7490196078431373, 0.7490196078431373, 0.05290418054014082, 1.0)
(0.7529411764705882, 0.7529411764705882, 0.06770255271920113, 1.0)
(0.7568627450980392, 0.7568627450980392, 0.08250092489826143, 1.0)
(0.7607843137254902, 0.7607843137254902, 0.09729929707732173, 1.0)
(0.7647058823529411, 0.7647058823529411, 0.11209766925638202, 1.0)
(0.7686274509803921, 0.7686274509803921, 0.1268960414354419, 1.0)
(0.7725490196078431, 0.7725490196078432, 0.14169441361450263, 1.0)
(0.776470588235294, 0.7764705882352941, 0.15649278579356293, 1.0)
(0.7803921568627451, 0.7803921568627451, 0.17129115797262323, 1.0)
(0.7843137254901961, 0.7843137254901961, 0.18608953015168353, 1.0)
(0.788235294117647, 0.788235294117647, 0.20088790233074383, 1.0)
(0.792156862745098, 0.792156862745098, 0.21568627450980413, 1.0)
(0.796078431372549, 0.796078431372549, 0.23048464668886443, 1.0)
(0.7999999999999999, 0.8, 0.24528301886792472, 1.0)
(0.803921568627451, 0.803921568627451, 0.260081391046985, 1.0)
(0.807843137254902, 0.807843137254902, 0.2748797632260453, 1.0)
(0.8117647058823529, 0.8117647058823529, 0.2896781354051056, 1.0)
(0.8156862745098039, 0.8156862745098039, 0.3044765075841659, 1.0)
(0.8196078431372549, 0.8196078431372549, 0.3192748797632262, 1.0)
(0.8235294117647058, 0.8235294117647058, 0.33407325194228654, 1.0)
(0.8274509803921569, 0.8274509803921568, 0.3488716241213468, 1.0)
(0.8313725490196077, 0.8313725490196078, 0.3636699963004067, 1.0)
(0.8352941176470589, 0.8352941176470589, 0.3784683684794674, 1.0)
(0.8392156862745098, 0.8392156862745098, 0.39326674065852774, 1.0)
(0.8431372549019608, 0.8431372549019608, 0.408065112837588, 1.0)
(0.8470588235294118, 0.8470588235294118, 0.42286348501664833, 1.0)
(0.8509803921568628, 0.8509803921568627, 0.4376618571957086, 1.0)
(0.8549019607843138, 0.8549019607843137, 0.45246022937476893, 1.0)
(0.8588235294117648, 0.8588235294117647, 0.4672586015538292, 1.0)
(0.8627450980392157, 0.8627450980392157, 0.4820569737328895, 1.0)
(0.8666666666666667, 0.8666666666666667, 0.4968553459119498, 1.0)
(0.8705882352941177, 0.8705882352941177, 0.5116537180910101, 1.0)
(0.8745098039215686, 0.8745098039215686, 0.5264520902700704, 1.0)
(0.8784313725490196, 0.8784313725490196, 0.5412504624491307, 1.0)
(0.8823529411764706, 0.8823529411764706, 0.556048834628191, 1.0)
(0.8862745098039215, 0.8862745098039215, 0.5708472068072513, 1.0)
(0.8901960784313725, 0.8901960784313725, 0.5856455789863116, 1.0)
(0.8941176470588235, 0.8941176470588235, 0.6004439511653715, 1.0)
(0.8980392156862745, 0.8980392156862745, 0.6152423233444322, 1.0)
(0.9019607843137255, 0.9019607843137255, 0.6300406955234925, 1.0)
(0.9058823529411765, 0.9058823529411765, 0.6448390677025528, 1.0)
(0.9098039215686274, 0.9098039215686274, 0.6596374398816132, 1.0)
(0.9137254901960784, 0.9137254901960784, 0.6744358120606734, 1.0)
(0.9176470588235294, 0.9176470588235294, 0.6892341842397337, 1.0)
(0.9215686274509804, 0.9215686274509803, 0.704032556418794, 1.0)
(0.9254901960784314, 0.9254901960784314, 0.7188309285978544, 1.0)
(0.9294117647058824, 0.9294117647058824, 0.7336293007769146, 1.0)
(0.9333333333333333, 0.9333333333333333, 0.7484276729559749, 1.0)
(0.9372549019607843, 0.9372549019607843, 0.7632260451350352, 1.0)
(0.9411764705882353, 0.9411764705882353, 0.7780244173140956, 1.0)
(0.9450980392156862, 0.9450980392156862, 0.7928227894931558, 1.0)
(0.9490196078431372, 0.9490196078431372, 0.8076211616722161, 1.0)
(0.9529411764705882, 0.9529411764705882, 0.8224195338512764, 1.0)
(0.9568627450980391, 0.9568627450980391, 0.8372179060303363, 1.0)
(0.9607843137254901, 0.9607843137254902, 0.852016278209397, 1.0)
(0.9647058823529411, 0.9647058823529412, 0.8668146503884573, 1.0)
(0.9686274509803922, 0.9686274509803922, 0.8816130225675176, 1.0)
(0.9725490196078431, 0.9725490196078431, 0.8964113947465779, 1.0)
(0.9764705882352941, 0.9764705882352941, 0.9112097669256382, 1.0)
(0.9803921568627451, 0.9803921568627451, 0.9260081391046985, 1.0)
(0.984313725490196, 0.984313725490196, 0.9408065112837588, 1.0)
(0.988235294117647, 0.9882352941176471, 0.9556048834628191, 1.0)
(0.9921568627450981, 0.9921568627450981, 0.9704032556418793, 1.0)
(0.996078431372549, 0.996078431372549, 0.9852016278209397, 1.0)
(1.0, 1.0, 1.0, 1.0)
