{
	/* required ***************************************************************/

	"dataFile" : "../data/velocity_magnitude_dist_1.22.bin",
	// float or double supported (C/C++, 32/64 bit)
	"dataFormat" : "float",

	// x,y,z dims of the data, assumed to be flattened such that the 1D index at (x,y,z) is x + y*XD + z*YD*XD
	// if data is in order z + y*ZD + x*YD*ZD, then swap x and z dims below
	"dims" :  [ 1024, 192, 512 ],

	/* for data with multiple non-interleaved fields, defaults to 0 ************/
	"dataOffset" : 0,

	"layers" : [ // must be ordered least to greatest and non-overlapping 
		[  -20,  -16  ],
		[  -16,  -12  ],
		[  -12,   -8  ],
		[  -8,    -4  ],		
		[  -4,     0  ]
    ],

	// target number of sites per voxel, controls how densly to pack Voronoi sites, 
	// 1.0/siteDensity is the target number of voxels per voronoi site
	"siteDensity" : 0.005,

	// where to save the tessellation results
	"outputDirectory"   : "./",

 	// if stopping condition is none, or is not met by this many updates the centroidal updating will stop
	"maxIterations" : 50,

	//stoppingCondition options are {"meanDelta" : <double>} , {"maxDelta" : <double>}, {"none" : <integer>} }	
	"stoppingCondition" : { "none" : 0 }, // defaults to none

	/* defaults to tesselation, deltas, and timers */
	"outputs" : [
		"tesselation",
		"voxelLayers",
		"voxelComponents",
		"sitePositions" ],

	// whether to run validation code, will verify the connected components
	// and will validate the Voronoi tessellation
	"validate" : true, 

	// whether to print info related to the execution status to the command line 
	"verbose"  : true,

	/* if set, then it will compute a weighted LSRCVT *****************************/
	// "massFile" : "", 
	// "massFormat" : "", 
	// "attractionBias" : 1.0, 
	// "massOffset" : 29, /* defaults to 0 */

	//////////////////////////////////////////////////////////////////////////////////////////////////////////

	// ADVANCED DEBUGGING AND EXECUTION ANALYSIS OPTIONS
	// RECCOMENDED TO LEAVE DISABLED
	// REFACTORING IN PROGRESS

	/* WARNING: outputing centroidal updates, and especially the intermediate steps
	       may result in thousands of very large files being written, use with caution */

	"intermediateOutputs"      : [], 
	"outputCentroidalUpdates"  : false, 
	"outputLOSSteps"           : false,
	"maxLOSSteps"              : -1,    // only applies if outputLOSSteps is true, -1 implies no limit/All
	"maxLOESteps"              : false,
	"maxLOESteps"              : -1,     // only applies if outputLOESteps is true, -1 implies no limit/All
	"overrideLOE"              : false
}
