
{
	"dims" : [ 432, 96, 512 ],

	"glyphs" : [ 
		{
			"name"           : "glyph_1",
			"glyph_type"     : "star",
			"normalization"  : "axes",

			"active_axes"       : [ 0 ],
			"active_components" : [ 0, 1, 2 ],

			"component_colors" : [
				[0,0.414545,0.647273],
				[0,0.574545,0.418182],
				[0.774545,0.341818,0],
				[0.836364,0.578182,0],
				[0.665455,0.607273,0.16],
				[0.741818,0.44,0.243636],
				[0.312727,0.654545,0.847273],
				[0.0363636,0.0363636,0.0363636],
				[0.254545,0.254545,0.254545] 
			],

			"axes" : [
				{
				    "name"       : "dudx_squared",
				    "latex"      : "$\\hat{E}_{\\left(\\frac{\\partial u}{\\partial x}\\right)^2}(\\mathbf{j})$",
				    "encoding"   : "perceptual/viridis",
				    "components" : [
						{
						    "name"  : "dudx_squared_0.1.2",
						    "latex" : "$\\mathbf{j}=(0,1,2)$",
						    "file"  : "spectral_energy.dudx_squared_0.1.2.bin"
						},
						{
						    "name"  : "dudx_squared_3",
						    "latex" : "$\\mathbf{j}=(3)$",
						    "file"  : "spectral_energy.dudx_squared_3.bin"
						},
						{
						    "name"  : "dudx_squared_4",
						    "latex" : "$\\mathbf{j}=(4)$",
						    "file"  : "spectral_energy.dudx_squared_4.bin"
						},
						{
						    "name"  : "dudx_squared_5",
						    "latex" : "$\\mathbf{j}=(5)$",
						    "file"  : "spectral_energy.dudx_squared_5.bin"
						},
						{
						    "name"  : "dudx_squared_6.7",
						    "latex" : "$\\mathbf{j}=(6,7)$",
						    "file"  : "spectral_energy.dudx_squared_6.7.bin"
						}
					]
				},
				{
				    "name"       : "dudy_squared",
				    "latex"      : "$\\hat{E}_{\\left(\\frac{\\partial u}{\\partial y}\\right)^2}(\\mathbf{j})$",
				    "encoding"   : "perceptual/viridis",
				    "components" : [
						{
						    "name"  : "dudy_squared_0.1.2",
						    "latex" : "$\\mathbf{j}=(0,1,2)$",
						    "file"  : "spectral_energy.dudy_squared_0.1.2.bin"
						},
						{
						    "name"  : "dudy_squared_3",
						    "latex" : "$\\mathbf{j}=(3)$",
						    "file"  : "spectral_energy.dudy_squared_3.bin"
						},
						{
						    "name"  : "dudy_squared_4",
						    "latex" : "$\\mathbf{j}=(4)$",
						    "file"  : "spectral_energy.dudy_squared_4.bin"
						},
						{
						    "name"  : "dudy_squared_5",
						    "latex" : "$\\mathbf{j}=(5)$",
						    "file"  : "spectral_energy.dudy_squared_5.bin"
						},
						{
						    "name"  : "dudy_squared_6.7",
						    "latex" : "$\\mathbf{j}=(6,7)$",
						    "file"  : "spectral_energy.dudy_squared_6.7.bin"
						}
					]
				},
				{
				    "name"       : "dudz_squared",
				    "latex"      : "$\\hat{E}_{\\left(\\frac{\\partial u}{\\partial z}\\right)^2}(\\mathbf{j})$",
				    "encoding"   : "perceptual/viridis",
				    "components" : [
						{
						    "name"  : "dudz_squared_0.1.2",
						    "latex" : "$\\mathbf{j}=(0,1,2)$",
						    "file"  : "spectral_energy.dudz_squared_0.1.2.bin"
						},
						{
						    "name"  : "dudz_squared_3",
						    "latex" : "$\\mathbf{j}=(3)$",
						    "file"  : "spectral_energy.dudz_squared_3.bin"
						},
						{
						    "name"  : "dudz_squared_4",
						    "latex" : "$\\mathbf{j}=(4)$",
						    "file"  : "spectral_energy.dudz_squared_4.bin"
						},
						{
						    "name"  : "dudz_squared_5",
						    "latex" : "$\\mathbf{j}=(5)$",
						    "file"  : "spectral_energy.dudz_squared_5.bin"
						},
						{
						    "name"  : "dudz_squared_6.7",
						    "latex" : "$\\mathbf{j}=(6,7)$",
						    "file"  : "spectral_energy.dudz_squared_6.7.bin"
						}
					]
				},
				{
				    "name"       : "dvdx_squared",
				    "latex"      : "$\\hat{E}_{\\left(\\frac{\\partial v}{\\partial x}\\right)^2}(\\mathbf{j})$",
				    "encoding"   : "perceptual/viridis",
				    "components" : [
						{
						    "name"  : "dvdx_squared_0.1.2",
						    "latex" : "$\\mathbf{j}=(0,1,2)$",
						    "file"  : "spectral_energy.dvdx_squared_0.1.2.bin"
						},
						{
						    "name"  : "dvdx_squared_3",
						    "latex" : "$\\mathbf{j}=(3)$",
						    "file"  : "spectral_energy.dvdx_squared_3.bin"
						},
						{
						    "name"  : "dvdx_squared_4",
						    "latex" : "$\\mathbf{j}=(4)$",
						    "file"  : "spectral_energy.dvdx_squared_4.bin"
						},
						{
						    "name"  : "dvdx_squared_5",
						    "latex" : "$\\mathbf{j}=(5)$",
						    "file"  : "spectral_energy.dvdx_squared_5.bin"
						},
						{
						    "name"  : "dvdx_squared_6.7",
						    "latex" : "$\\mathbf{j}=(6,7)$",
						    "file"  : "spectral_energy.dvdx_squared_6.7.bin"
						}
					]
				},
				{
				    "name"       : "dvdy_squared",
				    "latex"      : "$\\hat{E}_{\\left(\\frac{\\partial v}{\\partial y}\\right)^2}(\\mathbf{j})$",
				    "encoding"   : "perceptual/viridis",
				    "components" : [
						{
						    "name"  : "dvdy_squared_0.1.2",
						    "latex" : "$\\mathbf{j}=(0,1,2)$",
						    "file"  : "spectral_energy.dvdy_squared_0.1.2.bin"
						},
						{
						    "name"  : "dvdy_squared_3",
						    "latex" : "$\\mathbf{j}=(3)$",
						    "file"  : "spectral_energy.dvdy_squared_3.bin"
						},
						{
						    "name"  : "dvdy_squared_4",
						    "latex" : "$\\mathbf{j}=(4)$",
						    "file"  : "spectral_energy.dvdy_squared_4.bin"
						},
						{
						    "name"  : "dvdy_squared_5",
						    "latex" : "$\\mathbf{j}=(5)$",
						    "file"  : "spectral_energy.dvdy_squared_5.bin"
						},
						{
						    "name"  : "dvdy_squared_6.7",
						    "latex" : "$\\mathbf{j}=(6,7)$",
						    "file"  : "spectral_energy.dvdy_squared_6.7.bin"
						}
					]
				},
				{
				    "name"       : "dvdz_squared",
				    "latex"      : "$\\hat{E}_{\\left(\\frac{\\partial v}{\\partial z}\\right)^2}(\\mathbf{j})$",
				    "encoding"   : "perceptual/viridis",
				    "components" : [
						{
						    "name"  : "dvdz_squared_0.1.2",
						    "latex" : "$\\mathbf{j}=(0,1,2)$",
						    "file"  : "spectral_energy.dvdz_squared_0.1.2.bin"
						},
						{
						    "name"  : "dvdz_squared_3",
						    "latex" : "$\\mathbf{j}=(3)$",
						    "file"  : "spectral_energy.dvdz_squared_3.bin"
						},
						{
						    "name"  : "dvdz_squared_4",
						    "latex" : "$\\mathbf{j}=(4)$",
						    "file"  : "spectral_energy.dvdz_squared_4.bin"
						},
						{
						    "name"  : "dvdz_squared_5",
						    "latex" : "$\\mathbf{j}=(5)$",
						    "file"  : "spectral_energy.dvdz_squared_5.bin"
						},
						{
						    "name"  : "dvdz_squared_6.7",
						    "latex" : "$\\mathbf{j}=(6,7)$",
						    "file"  : "spectral_energy.dvdz_squared_6.7.bin"
						}
					]
				},
				{
				    "name"       : "dwdx_squared",
				    "latex"      : "$\\hat{E}_{\\left(\\frac{\\partial w}{\\partial x}\\right)^2}(\\mathbf{j})$",
				    "encoding"   : "perceptual/viridis",
				    "components" : [
						{
						    "name"  : "dwdx_squared_0.1.2",
						    "latex" : "$\\mathbf{j}=(0,1,2)$",
						    "file"  : "spectral_energy.dwdx_squared_0.1.2.bin"
						},
						{
						    "name"  : "dwdx_squared_3",
						    "latex" : "$\\mathbf{j}=(3)$",
						    "file"  : "spectral_energy.dwdx_squared_3.bin"
						},
						{
						    "name"  : "dwdx_squared_4",
						    "latex" : "$\\mathbf{j}=(4)$",
						    "file"  : "spectral_energy.dwdx_squared_4.bin"
						},
						{
						    "name"  : "dwdx_squared_5",
						    "latex" : "$\\mathbf{j}=(5)$",
						    "file"  : "spectral_energy.dwdx_squared_5.bin"
						},
						{
						    "name"  : "dwdx_squared_6.7",
						    "latex" : "$\\mathbf{j}=(6,7)$",
						    "file"  : "spectral_energy.dwdx_squared_6.7.bin"
						}
					]
				},
				{
				    "name"       : "dwdy_squared",
				    "latex"      : "$\\hat{E}_{\\left(\\frac{\\partial w}{\\partial y}\\right)^2}(\\mathbf{j})$",
				    "encoding"   : "perceptual/viridis",
				    "components" : [
						{
						    "name"  : "dwdy_squared_0.1.2",
						    "latex" : "$\\mathbf{j}=(0,1,2)$",
						    "file"  : "spectral_energy.dwdy_squared_0.1.2.bin"
						},
						{
						    "name"  : "dwdy_squared_3",
						    "latex" : "$\\mathbf{j}=(3)$",
						    "file"  : "spectral_energy.dwdy_squared_3.bin"
						},
						{
						    "name"  : "dwdy_squared_4",
						    "latex" : "$\\mathbf{j}=(4)$",
						    "file"  : "spectral_energy.dwdy_squared_4.bin"
						},
						{
						    "name"  : "dwdy_squared_5",
						    "latex" : "$\\mathbf{j}=(5)$",
						    "file"  : "spectral_energy.dwdy_squared_5.bin"
						},
						{
						    "name"  : "dwdy_squared_6.7",
						    "latex" : "$\\mathbf{j}=(6,7)$",
						    "file"  : "spectral_energy.dwdy_squared_6.7.bin"
						}
					]
				},
				{
				    "name"       : "dwdz_squared",
				    "latex"      : "$\\hat{E}_{\\left(\\frac{\\partial w}{\\partial z}\\right)^2}(\\mathbf{j})$",
				    "encoding"   : "perceptual/viridis",
				    "components" : [
						{
						    "name"  : "dwdz_squared_0.1.2",
						    "latex" : "$\\mathbf{j}=(0,1,2)$",
						    "file"  : "spectral_energy.dwdz_squared_0.1.2.bin"
						},
						{
						    "name"  : "dwdz_squared_3",
						    "latex" : "$\\mathbf{j}=(3)$",
						    "file"  : "spectral_energy.dwdz_squared_3.bin"
						},
						{
						    "name"  : "dwdz_squared_4",
						    "latex" : "$\\mathbf{j}=(4)$",
						    "file"  : "spectral_energy.dwdz_squared_4.bin"
						},
						{
						    "name"  : "dwdz_squared_5",
						    "latex" : "$\\mathbf{j}=(5)$",
						    "file"  : "spectral_energy.dwdz_squared_5.bin"
						},
						{
						    "name"  : "dwdz_squared_6.7",
						    "latex" : "$\\mathbf{j}=(6,7)$",
						    "file"  : "spectral_energy.dwdz_squared_6.7.bin"
						}
					]
				},
				{
				    "name"       : "dissipation",
				    "latex"      : "$\\hat{E}_{\\epsilon}(\\mathbf{j})$",
				    "encoding"   : "perceptual/viridis",
				    "components" : [
						{
						    "name"  : "dissipation_0.1.2",
						    "latex" : "$\\mathbf{j}=(0,1,2)$",
						    "file"  : "spectral_energy.dissipation_0.1.2.bin"
						},
						{
						    "name"  : "dissipation_3",
						    "latex" : "$\\mathbf{j}=(3)$",
						    "file"  : "spectral_energy.dissipation_3.bin"
						},
						{
						    "name"  : "dissipation_4",
						    "latex" : "$\\mathbf{j}=(4)$",
						    "file"  : "spectral_energy.dissipation_4.bin"
						},
						{
						    "name"  : "dissipation_5",
						    "latex" : "$\\mathbf{j}=(5)$",
						    "file"  : "spectral_energy.dissipation_5.bin"
						},
						{
						    "name"  : "dissipation_6.7",
						    "latex" : "$\\mathbf{j}=(6,7)$",
						    "file"  : "spectral_energy.dissipation_6.7.bin"
						}
					]
				}
			]
		}
	],

	/**********************************************************************/

	"variables" : [
		{
		    "name"   : "dudx_squared",
		    "filePath"   : "../channel/half_cropped/data/dudx_squared.bin",
		    "latex"  : "$\\left(\\frac{\\partial u}{\\partial x}\\right)^2$"
		},
		{
		    "name"   : "dudx_squared_0.1.2",
		    "filePath"   : "../channel/half_cropped/data/dudx_squared_0.1.2.bin",
		    "latex"  : "$\\left(\\frac{\\partial u}{\\partial x}\\right)^2.0.1.2$"
		},
		{
		    "name"   : "dudx_squared_3",
		    "filePath"   : "../channel/half_cropped/data/dudx_squared_3.bin",
		    "latex"  : "$\\left(\\frac{\\partial u}{\\partial x}\\right)^2.3$"
		},
		{
		    "name"   : "dudx_squared_4",
		    "filePath"   : "../channel/half_cropped/data/dudx_squared_4.bin",
		    "latex"  : "$\\left(\\frac{\\partial u}{\\partial x}\\right)^2.4$"
		},
		{
		    "name"   : "dudx_squared_5",
		    "filePath"   : "../channel/half_cropped/data/dudx_squared_5.bin",
		    "latex"  : "$\\left(\\frac{\\partial u}{\\partial x}\\right)^2.5$"
		},
		{
		    "name"   : "dudx_squared_6.7",
		    "filePath"   : "../channel/half_cropped/data/dudx_squared_6.7.bin",
		    "latex"  : "$\\left(\\frac{\\partial u}{\\partial x}\\right)^2.6.7$"
		},
		{
		    "name"   : "dudy_squared",
		    "filePath"   : "../channel/half_cropped/data/dudy_squared.bin",
		    "latex"  : "$\\left(\\frac{\\partial u}{\\partial y}\\right)^2$"
		},
		{
		    "name"   : "dudy_squared_0.1.2",
		    "filePath"   : "../channel/half_cropped/data/dudy_squared_0.1.2.bin",
		    "latex"  : "$\\left(\\frac{\\partial u}{\\partial y}\\right)^2.0.1.2$"
		},
		{
		    "name"   : "dudy_squared_3",
		    "filePath"   : "../channel/half_cropped/data/dudy_squared_3.bin",
		    "latex"  : "$\\left(\\frac{\\partial u}{\\partial y}\\right)^2.3$"
		},
		{
		    "name"   : "dudy_squared_4",
		    "filePath"   : "../channel/half_cropped/data/dudy_squared_4.bin",
		    "latex"  : "$\\left(\\frac{\\partial u}{\\partial y}\\right)^2.4$"
		},
		{
		    "name"   : "dudy_squared_5",
		    "filePath"   : "../channel/half_cropped/data/dudy_squared_5.bin",
		    "latex"  : "$\\left(\\frac{\\partial u}{\\partial y}\\right)^2.5$"
		},
		{
		    "name"   : "dudy_squared_6.7",
		    "filePath"   : "../channel/half_cropped/data/dudy_squared_6.7.bin",
		    "latex"  : "$\\left(\\frac{\\partial u}{\\partial y}\\right)^2.6.7$"
		},
		{
		    "name"   : "dudz_squared",
		    "filePath"   : "../channel/half_cropped/data/dudz_squared.bin",
		    "latex"  : "$\\left(\\frac{\\partial u}{\\partial z}\\right)^2$"
		},
		{
		    "name"   : "dudz_squared_0.1.2",
		    "filePath"   : "../channel/half_cropped/data/dudz_squared_0.1.2.bin",
		    "latex"  : "$\\left(\\frac{\\partial u}{\\partial z}\\right)^2.0.1.2$"
		},
		{
		    "name"   : "dudz_squared_3",
		    "filePath"   : "../channel/half_cropped/data/dudz_squared_3.bin",
		    "latex"  : "$\\left(\\frac{\\partial u}{\\partial z}\\right)^2.3$"
		},
		{
		    "name"   : "dudz_squared_4",
		    "filePath"   : "../channel/half_cropped/data/dudz_squared_4.bin",
		    "latex"  : "$\\left(\\frac{\\partial u}{\\partial z}\\right)^2.4$"
		},
		{
		    "name"   : "dudz_squared_5",
		    "filePath"   : "../channel/half_cropped/data/dudz_squared_5.bin",
		    "latex"  : "$\\left(\\frac{\\partial u}{\\partial z}\\right)^2.5$"
		},
		{
		    "name"   : "dudz_squared_6.7",
		    "filePath"   : "../channel/half_cropped/data/dudz_squared_6.7.bin",
		    "latex"  : "$\\left(\\frac{\\partial u}{\\partial z}\\right)^2.6.7$"
		},
		{
		    "name"   : "dvdx_squared",
		    "filePath"   : "../channel/half_cropped/data/dvdx_squared.bin",
		    "latex"  : "$\\left(\\frac{\\partial v}{\\partial x}\\right)^2$"
		},
		{
		    "name"   : "dvdx_squared_0.1.2",
		    "filePath"   : "../channel/half_cropped/data/dvdx_squared_0.1.2.bin",
		    "latex"  : "$\\left(\\frac{\\partial v}{\\partial x}\\right)^2.0.1.2$"
		},
		{
		    "name"   : "dvdx_squared_3",
		    "filePath"   : "../channel/half_cropped/data/dvdx_squared_3.bin",
		    "latex"  : "$\\left(\\frac{\\partial v}{\\partial x}\\right)^2.3$"
		},
		{
		    "name"   : "dvdx_squared_4",
		    "filePath"   : "../channel/half_cropped/data/dvdx_squared_4.bin",
		    "latex"  : "$\\left(\\frac{\\partial v}{\\partial x}\\right)^2.4$"
		},
		{
		    "name"   : "dvdx_squared_5",
		    "filePath"   : "../channel/half_cropped/data/dvdx_squared_5.bin",
		    "latex"  : "$\\left(\\frac{\\partial v}{\\partial x}\\right)^2.5$"
		},
		{
		    "name"   : "dvdx_squared_6.7",
		    "filePath"   : "../channel/half_cropped/data/dvdx_squared_6.7.bin",
		    "latex"  : "$\\left(\\frac{\\partial v}{\\partial x}\\right)^2.6.7$"
		},
		{
		    "name"   : "dvdy_squared",
		    "filePath"   : "../channel/half_cropped/data/dvdy_squared.bin",
		    "latex"  : "$\\left(\\frac{\\partial v}{\\partial y}\\right)^2$"
		},
		{
		    "name"   : "dvdy_squared_0.1.2",
		    "filePath"   : "../channel/half_cropped/data/dvdy_squared_0.1.2.bin",
		    "latex"  : "$\\left(\\frac{\\partial v}{\\partial y}\\right)^2.0.1.2$"
		},
		{
		    "name"   : "dvdy_squared_3",
		    "filePath"   : "../channel/half_cropped/data/dvdy_squared_3.bin",
		    "latex"  : "$\\left(\\frac{\\partial v}{\\partial y}\\right)^2.3$"
		},
		{
		    "name"   : "dvdy_squared_4",
		    "filePath"   : "../channel/half_cropped/data/dvdy_squared_4.bin",
		    "latex"  : "$\\left(\\frac{\\partial v}{\\partial y}\\right)^2.4$"
		},
		{
		    "name"   : "dvdy_squared_5",
		    "filePath"   : "../channel/half_cropped/data/dvdy_squared_5.bin",
		    "latex"  : "$\\left(\\frac{\\partial v}{\\partial y}\\right)^2.5$"
		},
		{
		    "name"   : "dvdy_squared_6.7",
		    "filePath"   : "../channel/half_cropped/data/dvdy_squared_6.7.bin",
		    "latex"  : "$\\left(\\frac{\\partial v}{\\partial y}\\right)^2.6.7$"
		},
		{
		    "name"   : "dvdz_squared",
		    "filePath"   : "../channel/half_cropped/data/dvdz_squared.bin",
		    "latex"  : "$\\left(\\frac{\\partial v}{\\partial z}\\right)^2$"
		},
		{
		    "name"   : "dvdz_squared_0.1.2",
		    "filePath"   : "../channel/half_cropped/data/dvdz_squared_0.1.2.bin",
		    "latex"  : "$\\left(\\frac{\\partial v}{\\partial z}\\right)^2.0.1.2$"
		},
		{
		    "name"   : "dvdz_squared_3",
		    "filePath"   : "../channel/half_cropped/data/dvdz_squared_3.bin",
		    "latex"  : "$\\left(\\frac{\\partial v}{\\partial z}\\right)^2.3$"
		},
		{
		    "name"   : "dvdz_squared_4",
		    "filePath"   : "../channel/half_cropped/data/dvdz_squared_4.bin",
		    "latex"  : "$\\left(\\frac{\\partial v}{\\partial z}\\right)^2.4$"
		},
		{
		    "name"   : "dvdz_squared_5",
		    "filePath"   : "../channel/half_cropped/data/dvdz_squared_5.bin",
		    "latex"  : "$\\left(\\frac{\\partial v}{\\partial z}\\right)^2.5$"
		},
		{
		    "name"   : "dvdz_squared_6.7",
		    "filePath"   : "../channel/half_cropped/data/dvdz_squared_6.7.bin",
		    "latex"  : "$\\left(\\frac{\\partial v}{\\partial z}\\right)^2.6.7$"
		},
		{
		    "name"   : "dwdx_squared",
		    "filePath"   : "../channel/half_cropped/data/dwdx_squared.bin",
		    "latex"  : "$\\left(\\frac{\\partial w}{\\partial x}\\right)^2$"
		},
		{
		    "name"   : "dwdx_squared_0.1.2",
		    "filePath"   : "../channel/half_cropped/data/dwdx_squared_0.1.2.bin",
		    "latex"  : "$\\left(\\frac{\\partial w}{\\partial x}\\right)^2.0.1.2$"
		},
		{
		    "name"   : "dwdx_squared_3",
		    "filePath"   : "../channel/half_cropped/data/dwdx_squared_3.bin",
		    "latex"  : "$\\left(\\frac{\\partial w}{\\partial x}\\right)^2.3$"
		},
		{
		    "name"   : "dwdx_squared_4",
		    "filePath"   : "../channel/half_cropped/data/dwdx_squared_4.bin",
		    "latex"  : "$\\left(\\frac{\\partial w}{\\partial x}\\right)^2.4$"
		},
		{
		    "name"   : "dwdx_squared_5",
		    "filePath"   : "../channel/half_cropped/data/dwdx_squared_5.bin",
		    "latex"  : "$\\left(\\frac{\\partial w}{\\partial x}\\right)^2.5$"
		},
		{
		    "name"   : "dwdx_squared_6.7",
		    "filePath"   : "../channel/half_cropped/data/dwdx_squared_6.7.bin",
		    "latex"  : "$\\left(\\frac{\\partial w}{\\partial x}\\right)^2.6.7$"
		},
		{
		    "name"   : "dwdy_squared",
		    "filePath"   : "../channel/half_cropped/data/dwdy_squared.bin",
		    "latex"  : "$\\left(\\frac{\\partial w}{\\partial y}\\right)^2$"
		},
		{
		    "name"   : "dwdy_squared_0.1.2",
		    "filePath"   : "../channel/half_cropped/data/dwdy_squared_0.1.2.bin",
		    "latex"  : "$\\left(\\frac{\\partial w}{\\partial y}\\right)^2.0.1.2$"
		},
		{
		    "name"   : "dwdy_squared_3",
		    "filePath"   : "../channel/half_cropped/data/dwdy_squared_3.bin",
		    "latex"  : "$\\left(\\frac{\\partial w}{\\partial y}\\right)^2.3$"
		},
		{
		    "name"   : "dwdy_squared_4",
		    "filePath"   : "../channel/half_cropped/data/dwdy_squared_4.bin",
		    "latex"  : "$\\left(\\frac{\\partial w}{\\partial y}\\right)^2.4$"
		},
		{
		    "name"   : "dwdy_squared_5",
		    "filePath"   : "../channel/half_cropped/data/dwdy_squared_5.bin",
		    "latex"  : "$\\left(\\frac{\\partial w}{\\partial y}\\right)^2.5$"
		},
		{
		    "name"   : "dwdy_squared_6.7",
		    "filePath"   : "../channel/half_cropped/data/dwdy_squared_6.7.bin",
		    "latex"  : "$\\left(\\frac{\\partial w}{\\partial y}\\right)^2.6.7$"
		},
		{
		    "name"   : "dwdz_squared",
		    "filePath"   : "../channel/half_cropped/data/dwdz_squared.bin",
		    "latex"  : "$\\left(\\frac{\\partial w}{\\partial z}\\right)^2$"
		},
		{
		    "name"   : "dwdz_squared_0.1.2",
		    "filePath"   : "../channel/half_cropped/data/dwdz_squared_0.1.2.bin",
		    "latex"  : "$\\left(\\frac{\\partial w}{\\partial z}\\right)^2.0.1.2$"
		},
		{
		    "name"   : "dwdz_squared_3",
		    "filePath"   : "../channel/half_cropped/data/dwdz_squared_3.bin",
		    "latex"  : "$\\left(\\frac{\\partial w}{\\partial z}\\right)^2.3$"
		},
		{
		    "name"   : "dwdz_squared_4",
		    "filePath"   : "../channel/half_cropped/data/dwdz_squared_4.bin",
		    "latex"  : "$\\left(\\frac{\\partial w}{\\partial z}\\right)^2.4$"
		},
		{
		    "name"   : "dwdz_squared_5",
		    "filePath"   : "../channel/half_cropped/data/dwdz_squared_5.bin",
		    "latex"  : "$\\left(\\frac{\\partial w}{\\partial z}\\right)^2.5$"
		},
		{
		    "name"   : "dwdz_squared_6.7",
		    "filePath"   : "../channel/half_cropped/data/dwdz_squared_6.7.bin",
		    "latex"  : "$\\left(\\frac{\\partial w}{\\partial z}\\right)^2.6.7$"
		},
		{
		    "name"   : "dissipation",
		    "filePath"   : "../channel/half_cropped/data/dissipation.bin",
		    "latex"  : "$\\epsilon$"
		},
		{
		    "name"   : "dissipation_0.1.2",
		    "filePath"   : "../channel/half_cropped/data/dissipation_0.1.2.bin",
		    "latex"  : "$\\epsilon.0.1.2$"
		},
		{
		    "name"   : "dissipation_3",
		    "filePath"   : "../channel/half_cropped/data/dissipation_3.bin",
		    "latex"  : "$\\epsilon.3$"
		},
		{
		    "name"   : "dissipation_4",
		    "filePath"   : "../channel/half_cropped/data/dissipation_4.bin",
		    "latex"  : "$\\epsilon.4$"
		},
		{
		    "name"   : "dissipation_5",
		    "filePath"   : "../channel/half_cropped/data/dissipation_5.bin",
		    "latex"  : "$\\epsilon.5$"
		},
		{
		    "name"   : "dissipation_6.7",
		    "filePath"   : "../channel/half_cropped/data/dissipation_6.7.bin",
		    "latex"  : "$\\epsilon.6.7$"
		},
		{
		    "name"   : "dissipation",
		    "filePath"   : "../channel/half_cropped/data/dissipation.bin",
		    "latex"  : "$\\epsilon$"
		},
		{
		    "name"   : "dissipation_dist_50.0",
		    "filePath"   : "../channel/half_cropped/data/dissipation_dist_50.0.bin",
		    "latex"  : "$b_f$"
		}
	],

	"constants" : [],
	"derivedConstants" : [],

	"tessellationDirectory" : "../channel/half_cropped/tessellation_4/",
	
	"lField" : "dissipation_dist_50.0",

	"IsosurfaceVisualizations" : [],

	"layerValuesNormalized" : false,

	"jointPlots" : []
}
